<?xml version="1.0" encoding="UTF-8" standalone="no"?>
<!DOCTYPE svg PUBLIC "-//W3C//DTD SVG 1.1//EN"
 "http://www.w3.org/Graphics/SVG/1.1/DTD/svg11.dtd">
<!-- Generated by graphviz version 2.40.1 (20161225.0304)
 -->
<!-- Title: world Pages: 1 -->
<svg width="1463pt" height="1446pt"
 viewBox="0.00 0.00 1462.92 1446.33" xmlns="http://www.w3.org/2000/svg" xmlns:xlink="http://www.w3.org/1999/xlink">
<g id="graph0" class="graph" transform="scale(1 1) rotate(0) translate(4 1442.3331)">
<title>world</title>
<polygon fill="#ffffff" stroke="transparent" points="-4,4 -4,-1442.3331 1458.9211,-1442.3331 1458.9211,4 -4,4"/>
<!-- 0 -->
<g id="node1" class="node">
<title>0</title>
<ellipse fill="#f46d43" stroke="#000000" cx="1058.6435" cy="-1337.2331" rx="27" ry="18"/>
<text text-anchor="middle" x="1058.6435" y="-1333.5331" font-family="Times,serif" font-size="14.00" fill="#000000">0</text>
</g>
<!-- 1 -->
<g id="node2" class="node">
<title>1</title>
<ellipse fill="#5e4fa2" stroke="#000000" cx="1383.166" cy="-965.7872" rx="27" ry="18"/>
<text text-anchor="middle" x="1383.166" y="-962.0872" font-family="Times,serif" font-size="14.00" fill="#000000">1</text>
</g>
<!-- 0&#45;&#45;1 -->
<g id="edge4" class="edge">
<title>0&#45;&#45;1</title>
<path fill="none" stroke="#000000" d="M1072.5879,-1321.2725C1125.8472,-1260.3123 1316.1035,-1042.5464 1369.2736,-981.6883"/>
</g>
<!-- 6 -->
<g id="node7" class="node">
<title>6</title>
<ellipse fill="#abdda4" stroke="#000000" cx="27" cy="-782.082" rx="27" ry="18"/>
<text text-anchor="middle" x="27" y="-778.382" font-family="Times,serif" font-size="14.00" fill="#000000">6</text>
</g>
<!-- 0&#45;&#45;6 -->
<g id="edge17" class="edge">
<title>0&#45;&#45;6</title>
<path fill="none" stroke="#000000" d="M1037.5686,-1325.8921C904.4085,-1254.2357 181.1025,-865.0081 48.0415,-793.4049"/>
</g>
<!-- 7 -->
<g id="node8" class="node">
<title>7</title>
<ellipse fill="#e6f598" stroke="#000000" cx="241.0093" cy="-1226.477" rx="27" ry="18"/>
<text text-anchor="middle" x="241.0093" y="-1222.777" font-family="Times,serif" font-size="14.00" fill="#000000">7</text>
</g>
<!-- 0&#45;&#45;7 -->
<g id="edge12" class="edge">
<title>0&#45;&#45;7</title>
<path fill="none" stroke="#000000" d="M1031.9042,-1333.611C908.0542,-1316.8343 390.9618,-1246.7894 267.5446,-1230.0714"/>
</g>
<!-- 9 -->
<g id="node10" class="node">
<title>9</title>
<ellipse fill="#abdda4" stroke="#000000" cx="942.9385" cy="-1386.6877" rx="27" ry="18"/>
<text text-anchor="middle" x="942.9385" y="-1382.9877" font-family="Times,serif" font-size="14.00" fill="#000000">9</text>
</g>
<!-- 0&#45;&#45;9 -->
<g id="edge9" class="edge">
<title>0&#45;&#45;9</title>
<path fill="none" stroke="#000000" d="M1035.7839,-1347.0037C1015.4993,-1355.6738 986.0209,-1368.2734 965.7506,-1376.9374"/>
</g>
<!-- 11 -->
<g id="node12" class="node">
<title>11</title>
<ellipse fill="#d53e4f" stroke="#000000" cx="49.468" cy="-905.8907" rx="27" ry="18"/>
<text text-anchor="middle" x="49.468" y="-902.1907" font-family="Times,serif" font-size="14.00" fill="#000000">11</text>
</g>
<!-- 0&#45;&#45;11 -->
<g id="edge10" class="edge">
<title>0&#45;&#45;11</title>
<path fill="none" stroke="#000000" d="M1035.6694,-1327.4134C900.2695,-1269.5407 207.7077,-973.5256 72.4063,-915.695"/>
</g>
<!-- 13 -->
<g id="node14" class="node">
<title>13</title>
<ellipse fill="#abdda4" stroke="#000000" cx="694.5583" cy="-1420.3331" rx="27" ry="18"/>
<text text-anchor="middle" x="694.5583" y="-1416.6331" font-family="Times,serif" font-size="14.00" fill="#000000">13</text>
</g>
<!-- 0&#45;&#45;13 -->
<g id="edge7" class="edge">
<title>0&#45;&#45;13</title>
<path fill="none" stroke="#000000" d="M1033.0418,-1343.0765C966.1926,-1358.3344 786.9492,-1399.2455 720.1318,-1414.4961"/>
</g>
<!-- 14 -->
<g id="node15" class="node">
<title>14</title>
<ellipse fill="#ffffbf" stroke="#000000" cx="93.6818" cy="-1023.698" rx="27" ry="18"/>
<text text-anchor="middle" x="93.6818" y="-1019.998" font-family="Times,serif" font-size="14.00" fill="#000000">14</text>
</g>
<!-- 0&#45;&#45;14 -->
<g id="edge1" class="edge">
<title>0&#45;&#45;14</title>
<path fill="none" stroke="#000000" d="M1034.3078,-1329.3259C900.2886,-1285.7804 253.3622,-1075.5813 118.3919,-1031.7268"/>
</g>
<!-- 15 -->
<g id="node16" class="node">
<title>15</title>
<ellipse fill="#3288bd" stroke="#000000" cx="339.3879" cy="-133.4019" rx="27" ry="18"/>
<text text-anchor="middle" x="339.3879" y="-129.7019" font-family="Times,serif" font-size="14.00" fill="#000000">15</text>
</g>
<!-- 0&#45;&#45;15 -->
<g id="edge6" class="edge">
<title>0&#45;&#45;15</title>
<path fill="none" stroke="#000000" d="M1048.4759,-1320.2153C967.6278,-1184.8984 429.8599,-284.8265 349.4417,-150.2292"/>
</g>
<!-- 16 -->
<g id="node17" class="node">
<title>16</title>
<ellipse fill="#fee08b" stroke="#000000" cx="49.468" cy="-532.4424" rx="27" ry="18"/>
<text text-anchor="middle" x="49.468" y="-528.7424" font-family="Times,serif" font-size="14.00" fill="#000000">16</text>
</g>
<!-- 0&#45;&#45;16 -->
<g id="edge13" class="edge">
<title>0&#45;&#45;16</title>
<path fill="none" stroke="#000000" d="M1041.1274,-1323.2644C918.5048,-1225.4762 189.9782,-644.4956 67.0707,-546.4801"/>
</g>
<!-- 18 -->
<g id="node19" class="node">
<title>18</title>
<ellipse fill="#ffffbf" stroke="#000000" cx="1254.6085" cy="-1180.9562" rx="27" ry="18"/>
<text text-anchor="middle" x="1254.6085" y="-1177.2562" font-family="Times,serif" font-size="14.00" fill="#000000">18</text>
</g>
<!-- 0&#45;&#45;18 -->
<g id="edge16" class="edge">
<title>0&#45;&#45;18</title>
<path fill="none" stroke="#000000" d="M1076.0341,-1323.3645C1113.2218,-1293.7083 1200.1039,-1224.4221 1237.2569,-1194.7936"/>
</g>
<!-- 19 -->
<g id="node20" class="node">
<title>19</title>
<ellipse fill="#9e0142" stroke="#000000" cx="1163.6586" cy="-170.4199" rx="27" ry="18"/>
<text text-anchor="middle" x="1163.6586" y="-166.7199" font-family="Times,serif" font-size="14.00" fill="#000000">19</text>
</g>
<!-- 0&#45;&#45;19 -->
<g id="edge3" class="edge">
<title>0&#45;&#45;19</title>
<path fill="none" stroke="#000000" d="M1060.2931,-1318.9052C1072.5834,-1182.3486 1149.7352,-325.122 1162.0127,-188.7074"/>
</g>
<!-- 21 -->
<g id="node22" class="node">
<title>21</title>
<ellipse fill="#9e0142" stroke="#000000" cx="820.2625" cy="-1414.6877" rx="27" ry="18"/>
<text text-anchor="middle" x="820.2625" y="-1410.9877" font-family="Times,serif" font-size="14.00" fill="#000000">21</text>
</g>
<!-- 0&#45;&#45;21 -->
<g id="edge8" class="edge">
<title>0&#45;&#45;21</title>
<path fill="none" stroke="#000000" d="M1034.0304,-1345.2303C988.232,-1360.1111 890.4386,-1391.8862 844.7417,-1406.734"/>
</g>
<!-- 25 -->
<g id="node26" class="node">
<title>25</title>
<ellipse fill="#fdae61" stroke="#000000" cx="339.3879" cy="-1304.9312" rx="27" ry="18"/>
<text text-anchor="middle" x="339.3879" y="-1301.2312" font-family="Times,serif" font-size="14.00" fill="#000000">25</text>
</g>
<!-- 0&#45;&#45;25 -->
<g id="edge11" class="edge">
<title>0&#45;&#45;25</title>
<path fill="none" stroke="#000000" d="M1031.3261,-1336.0062C917.2662,-1330.8838 479.7317,-1311.2341 366.3487,-1306.1421"/>
</g>
<!-- 26 -->
<g id="node27" class="node">
<title>26</title>
<ellipse fill="#d53e4f" stroke="#000000" cx="158.2203" cy="-306.6158" rx="27" ry="18"/>
<text text-anchor="middle" x="158.2203" y="-302.9158" font-family="Times,serif" font-size="14.00" fill="#000000">26</text>
</g>
<!-- 0&#45;&#45;26 -->
<g id="edge15" class="edge">
<title>0&#45;&#45;26</title>
<path fill="none" stroke="#000000" d="M1044.8603,-1321.4569C940.5368,-1202.0491 276.4375,-441.9262 172.0277,-322.4195"/>
</g>
<!-- 27 -->
<g id="node28" class="node">
<title>27</title>
<ellipse fill="#fdae61" stroke="#000000" cx="1328.5701" cy="-1079.1569" rx="27" ry="18"/>
<text text-anchor="middle" x="1328.5701" y="-1075.4569" font-family="Times,serif" font-size="14.00" fill="#000000">27</text>
</g>
<!-- 0&#45;&#45;27 -->
<g id="edge5" class="edge">
<title>0&#45;&#45;27</title>
<path fill="none" stroke="#000000" d="M1074.3226,-1322.2423C1122.03,-1276.6293 1265.0826,-1139.857 1312.8477,-1094.189"/>
</g>
<!-- 28 -->
<g id="node29" class="node">
<title>28</title>
<ellipse fill="#fee08b" stroke="#000000" cx="820.2625" cy="-23.6454" rx="27" ry="18"/>
<text text-anchor="middle" x="820.2625" y="-19.9454" font-family="Times,serif" font-size="14.00" fill="#000000">28</text>
</g>
<!-- 0&#45;&#45;28 -->
<g id="edge2" class="edge">
<title>0&#45;&#45;28</title>
<path fill="none" stroke="#000000" d="M1055.3644,-1319.1637C1028.8578,-1173.1002 849.9308,-187.1313 823.5174,-41.5811"/>
</g>
<!-- 29 -->
<g id="node30" class="node">
<title>29</title>
<ellipse fill="#d53e4f" stroke="#000000" cx="1383.166" cy="-472.546" rx="27" ry="18"/>
<text text-anchor="middle" x="1383.166" y="-468.846" font-family="Times,serif" font-size="14.00" fill="#000000">29</text>
</g>
<!-- 0&#45;&#45;29 -->
<g id="edge21" class="edge">
<title>0&#45;&#45;29</title>
<path fill="none" stroke="#000000" d="M1065.273,-1319.5688C1107.161,-1207.9587 1334.6902,-601.7092 1376.547,-490.1822"/>
</g>
<!-- 30 -->
<g id="node31" class="node">
<title>30</title>
<ellipse fill="#66c2a5" stroke="#000000" cx="569.8663" cy="-1403.4424" rx="27" ry="18"/>
<text text-anchor="middle" x="569.8663" y="-1399.7424" font-family="Times,serif" font-size="14.00" fill="#000000">30</text>
</g>
<!-- 0&#45;&#45;30 -->
<g id="edge18" class="edge">
<title>0&#45;&#45;30</title>
<path fill="none" stroke="#000000" d="M1032.0176,-1340.8398C946.8542,-1352.3759 681.7137,-1388.2917 596.5163,-1399.8324"/>
</g>
<!-- 31 -->
<g id="node32" class="node">
<title>31</title>
<ellipse fill="#fee08b" stroke="#000000" cx="1416.6417" cy="-593.8422" rx="27" ry="18"/>
<text text-anchor="middle" x="1416.6417" y="-590.1422" font-family="Times,serif" font-size="14.00" fill="#000000">31</text>
</g>
<!-- 0&#45;&#45;31 -->
<g id="edge19" class="edge">
<title>0&#45;&#45;31</title>
<path fill="none" stroke="#000000" d="M1066.9658,-1319.9516C1115.3635,-1219.4529 1360.0909,-711.2711 1408.365,-611.029"/>
</g>
<!-- 32 -->
<g id="node33" class="node">
<title>32</title>
<ellipse fill="#66c2a5" stroke="#000000" cx="27" cy="-656.2511" rx="27" ry="18"/>
<text text-anchor="middle" x="27" y="-652.5511" font-family="Times,serif" font-size="14.00" fill="#000000">32</text>
</g>
<!-- 0&#45;&#45;32 -->
<g id="edge20" class="edge">
<title>0&#45;&#45;32</title>
<path fill="none" stroke="#000000" d="M1039.409,-1324.5364C910.7326,-1239.5979 176.0743,-754.6542 46.5165,-669.1338"/>
</g>
<!-- 34 -->
<g id="node35" class="node">
<title>34</title>
<ellipse fill="#fee08b" stroke="#000000" cx="1427.9211" cy="-719.1666" rx="27" ry="18"/>
<text text-anchor="middle" x="1427.9211" y="-715.4666" font-family="Times,serif" font-size="14.00" fill="#000000">34</text>
</g>
<!-- 0&#45;&#45;34 -->
<g id="edge14" class="edge">
<title>0&#45;&#45;34</title>
<path fill="none" stroke="#000000" d="M1068.7123,-1320.3807C1121.4235,-1232.1571 1365.1719,-824.191 1417.8613,-736.0038"/>
</g>
<!-- 2 -->
<g id="node3" class="node">
<title>2</title>
<ellipse fill="#f46d43" stroke="#000000" cx="1254.6085" cy="-257.3769" rx="27" ry="18"/>
<text text-anchor="middle" x="1254.6085" y="-253.6769" font-family="Times,serif" font-size="14.00" fill="#000000">2</text>
</g>
<!-- 1&#45;&#45;2 -->
<g id="edge39" class="edge">
<title>1&#45;&#45;2</title>
<path fill="none" stroke="#000000" d="M1379.859,-947.5639C1361.859,-848.3761 1275.8384,-374.3634 1257.8937,-275.4797"/>
</g>
<!-- 3 -->
<g id="node4" class="node">
<title>3</title>
<ellipse fill="#9e0142" stroke="#000000" cx="158.2203" cy="-1131.7173" rx="27" ry="18"/>
<text text-anchor="middle" x="158.2203" y="-1128.0173" font-family="Times,serif" font-size="14.00" fill="#000000">3</text>
</g>
<!-- 1&#45;&#45;3 -->
<g id="edge36" class="edge">
<title>1&#45;&#45;3</title>
<path fill="none" stroke="#000000" d="M1356.4421,-969.4072C1194.5373,-991.3387 346.503,-1106.2127 184.8539,-1128.1096"/>
</g>
<!-- 5 -->
<g id="node6" class="node">
<title>5</title>
<ellipse fill="#ffffbf" stroke="#000000" cx="241.0093" cy="-211.8561" rx="27" ry="18"/>
<text text-anchor="middle" x="241.0093" y="-208.1561" font-family="Times,serif" font-size="14.00" fill="#000000">5</text>
</g>
<!-- 1&#45;&#45;5 -->
<g id="edge22" class="edge">
<title>1&#45;&#45;5</title>
<path fill="none" stroke="#000000" d="M1363.821,-953.0176C1226.3379,-862.2658 398.5941,-315.877 260.5288,-224.7408"/>
</g>
<!-- 1&#45;&#45;7 -->
<g id="edge28" class="edge">
<title>1&#45;&#45;7</title>
<path fill="none" stroke="#000000" d="M1357.4375,-971.6595C1204.7823,-1006.5021 419.4336,-1185.7528 266.7487,-1220.6021"/>
</g>
<!-- 8 -->
<g id="node9" class="node">
<title>8</title>
<ellipse fill="#e6f598" stroke="#000000" cx="942.9385" cy="-51.6454" rx="27" ry="18"/>
<text text-anchor="middle" x="942.9385" y="-47.9454" font-family="Times,serif" font-size="14.00" fill="#000000">8</text>
</g>
<!-- 1&#45;&#45;8 -->
<g id="edge30" class="edge">
<title>1&#45;&#45;8</title>
<path fill="none" stroke="#000000" d="M1374.765,-948.3423C1319.3121,-833.1932 1006.4228,-183.4717 951.2495,-68.9033"/>
</g>
<!-- 1&#45;&#45;11 -->
<g id="edge33" class="edge">
<title>1&#45;&#45;11</title>
<path fill="none" stroke="#000000" d="M1356.2235,-964.5772C1184.79,-956.8781 247.8857,-914.8017 76.421,-907.1012"/>
</g>
<!-- 12 -->
<g id="node13" class="node">
<title>12</title>
<ellipse fill="#3288bd" stroke="#000000" cx="1163.6586" cy="-1267.9132" rx="27" ry="18"/>
<text text-anchor="middle" x="1163.6586" y="-1264.2132" font-family="Times,serif" font-size="14.00" fill="#000000">12</text>
</g>
<!-- 1&#45;&#45;12 -->
<g id="edge25" class="edge">
<title>1&#45;&#45;12</title>
<path fill="none" stroke="#000000" d="M1371.3643,-982.0308C1333.2507,-1034.4898 1213.7153,-1199.0161 1175.5186,-1251.5893"/>
</g>
<!-- 1&#45;&#45;13 -->
<g id="edge37" class="edge">
<title>1&#45;&#45;13</title>
<path fill="none" stroke="#000000" d="M1363.6666,-978.6586C1264.0802,-1044.395 813.073,-1342.1022 713.8878,-1407.5739"/>
</g>
<!-- 1&#45;&#45;14 -->
<g id="edge40" class="edge">
<title>1&#45;&#45;14</title>
<path fill="none" stroke="#000000" d="M1355.9358,-967.0101C1187.4393,-974.5773 288.6195,-1014.9433 120.7095,-1022.4842"/>
</g>
<!-- 1&#45;&#45;15 -->
<g id="edge27" class="edge">
<title>1&#45;&#45;15</title>
<path fill="none" stroke="#000000" d="M1365.4873,-951.6888C1239.7122,-851.3865 481.7856,-246.9603 356.8246,-147.3072"/>
</g>
<!-- 1&#45;&#45;16 -->
<g id="edge26" class="edge">
<title>1&#45;&#45;16</title>
<path fill="none" stroke="#000000" d="M1358.8787,-957.8957C1193.9172,-904.2965 239.5202,-594.1941 73.9474,-540.3962"/>
</g>
<!-- 1&#45;&#45;18 -->
<g id="edge31" class="edge">
<title>1&#45;&#45;18</title>
<path fill="none" stroke="#000000" d="M1373.0783,-982.6711C1349.0464,-1022.8937 1288.6339,-1124.0073 1264.6493,-1164.1507"/>
</g>
<!-- 20 -->
<g id="node21" class="node">
<title>20</title>
<ellipse fill="#f46d43" stroke="#000000" cx="450.194" cy="-1364.5586" rx="27" ry="18"/>
<text text-anchor="middle" x="450.194" y="-1360.8586" font-family="Times,serif" font-size="14.00" fill="#000000">20</text>
</g>
<!-- 1&#45;&#45;20 -->
<g id="edge34" class="edge">
<title>1&#45;&#45;20</title>
<path fill="none" stroke="#000000" d="M1360.1037,-975.6445C1231.3058,-1030.6953 602.1584,-1299.6058 473.2854,-1354.6888"/>
</g>
<!-- 1&#45;&#45;25 -->
<g id="edge35" class="edge">
<title>1&#45;&#45;25</title>
<path fill="none" stroke="#000000" d="M1358.6485,-973.7534C1217.0879,-1019.7492 505.644,-1250.9113 363.9538,-1296.9493"/>
</g>
<!-- 1&#45;&#45;26 -->
<g id="edge23" class="edge">
<title>1&#45;&#45;26</title>
<path fill="none" stroke="#000000" d="M1361.9048,-954.346C1213.0645,-874.2516 328.7728,-398.394 179.5867,-318.1135"/>
</g>
<!-- 1&#45;&#45;27 -->
<g id="edge29" class="edge">
<title>1&#45;&#45;27</title>
<path fill="none" stroke="#000000" d="M1374.8741,-983.0056C1364.6125,-1004.314 1347.2375,-1040.3934 1336.94,-1061.7764"/>
</g>
<!-- 1&#45;&#45;31 -->
<g id="edge38" class="edge">
<title>1&#45;&#45;31</title>
<path fill="none" stroke="#000000" d="M1384.8033,-947.5957C1390.4872,-884.4426 1409.3285,-675.0977 1415.0076,-611.9987"/>
</g>
<!-- 1&#45;&#45;32 -->
<g id="edge32" class="edge">
<title>1&#45;&#45;32</title>
<path fill="none" stroke="#000000" d="M1357.5842,-959.9483C1187.5921,-921.1487 222.769,-700.9341 52.6292,-662.1008"/>
</g>
<!-- 33 -->
<g id="node34" class="node">
<title>33</title>
<ellipse fill="#f46d43" stroke="#000000" cx="1416.6417" cy="-844.4909" rx="27" ry="18"/>
<text text-anchor="middle" x="1416.6417" y="-840.7909" font-family="Times,serif" font-size="14.00" fill="#000000">33</text>
</g>
<!-- 1&#45;&#45;33 -->
<g id="edge24" class="edge">
<title>1&#45;&#45;33</title>
<path fill="none" stroke="#000000" d="M1388.1055,-947.8895C1394.4346,-924.9564 1405.3431,-885.4304 1411.682,-862.462"/>
</g>
<!-- 1&#45;&#45;34 -->
<g id="edge41" class="edge">
<title>1&#45;&#45;34</title>
<path fill="none" stroke="#000000" d="M1386.457,-947.6526C1394.7335,-902.0449 1416.3435,-782.964 1424.6253,-737.3277"/>
</g>
<!-- 4 -->
<g id="node5" class="node">
<title>4</title>
<ellipse fill="#ffffbf" stroke="#000000" cx="1058.6435" cy="-101.1001" rx="27" ry="18"/>
<text text-anchor="middle" x="1058.6435" y="-97.4001" font-family="Times,serif" font-size="14.00" fill="#000000">4</text>
</g>
<!-- 2&#45;&#45;4 -->
<g id="edge44" class="edge">
<title>2&#45;&#45;4</title>
<path fill="none" stroke="#000000" d="M1237.2179,-243.5084C1200.0302,-213.8522 1113.1481,-144.566 1075.9951,-114.9375"/>
</g>
<!-- 2&#45;&#45;5 -->
<g id="edge60" class="edge">
<title>2&#45;&#45;5</title>
<path fill="none" stroke="#000000" d="M1227.4972,-256.1594C1083.7792,-249.705 412.1278,-219.5411 268.2045,-213.0775"/>
</g>
<!-- 2&#45;&#45;6 -->
<g id="edge51" class="edge">
<title>2&#45;&#45;6</title>
<path fill="none" stroke="#000000" d="M1231.7203,-267.1598C1078.4372,-332.6762 202.5168,-707.0625 49.7305,-772.3665"/>
</g>
<!-- 2&#45;&#45;7 -->
<g id="edge55" class="edge">
<title>2&#45;&#45;7</title>
<path fill="none" stroke="#000000" d="M1239.0929,-272.2114C1121.6568,-384.4918 374.0854,-1099.2432 256.5521,-1211.6165"/>
</g>
<!-- 2&#45;&#45;8 -->
<g id="edge56" class="edge">
<title>2&#45;&#45;8</title>
<path fill="none" stroke="#000000" d="M1235.1122,-244.5075C1179.1405,-207.5609 1018.39,-101.4505 962.4275,-64.51"/>
</g>
<!-- 2&#45;&#45;9 -->
<g id="edge59" class="edge">
<title>2&#45;&#45;9</title>
<path fill="none" stroke="#000000" d="M1249.7129,-275.1157C1213.2757,-407.1429 984.7473,-1235.1972 947.94,-1368.5652"/>
</g>
<!-- 10 -->
<g id="node11" class="node">
<title>10</title>
<ellipse fill="#ffffbf" stroke="#000000" cx="450.194" cy="-73.7746" rx="27" ry="18"/>
<text text-anchor="middle" x="450.194" y="-70.0746" font-family="Times,serif" font-size="14.00" fill="#000000">10</text>
</g>
<!-- 2&#45;&#45;10 -->
<g id="edge46" class="edge">
<title>2&#45;&#45;10</title>
<path fill="none" stroke="#000000" d="M1228.7553,-251.4761C1107.6063,-223.8246 596.8938,-107.2578 475.9511,-79.6535"/>
</g>
<!-- 2&#45;&#45;12 -->
<g id="edge50" class="edge">
<title>2&#45;&#45;12</title>
<path fill="none" stroke="#000000" d="M1252.9913,-275.3456C1241.8377,-399.2727 1176.4359,-1125.946 1165.2773,-1249.9277"/>
</g>
<!-- 2&#45;&#45;13 -->
<g id="edge48" class="edge">
<title>2&#45;&#45;13</title>
<path fill="none" stroke="#000000" d="M1246.257,-274.7191C1182.0314,-408.0849 767.3587,-1269.1616 702.9581,-1402.8908"/>
</g>
<!-- 2&#45;&#45;14 -->
<g id="edge57" class="edge">
<title>2&#45;&#45;14</title>
<path fill="none" stroke="#000000" d="M1234.9456,-270.3563C1095.0541,-362.6979 252.0616,-919.1524 113.0755,-1010.8963"/>
</g>
<!-- 2&#45;&#45;16 -->
<g id="edge64" class="edge">
<title>2&#45;&#45;16</title>
<path fill="none" stroke="#000000" d="M1228.8799,-263.2493C1070.8546,-299.3176 233.2779,-490.489 75.2111,-526.5667"/>
</g>
<!-- 17 -->
<g id="node18" class="node">
<title>17</title>
<ellipse fill="#fdae61" stroke="#000000" cx="694.5583" cy="-18" rx="27" ry="18"/>
<text text-anchor="middle" x="694.5583" y="-14.3" font-family="Times,serif" font-size="14.00" fill="#000000">17</text>
</g>
<!-- 2&#45;&#45;17 -->
<g id="edge53" class="edge">
<title>2&#45;&#45;17</title>
<path fill="none" stroke="#000000" d="M1231.6098,-247.5468C1140.8371,-208.7487 808.0035,-66.4888 717.4398,-27.78"/>
</g>
<!-- 2&#45;&#45;19 -->
<g id="edge43" class="edge">
<title>2&#45;&#45;19</title>
<path fill="none" stroke="#000000" d="M1238.7663,-242.2302C1222.073,-226.2698 1195.9438,-201.2877 1179.3193,-185.3931"/>
</g>
<!-- 2&#45;&#45;21 -->
<g id="edge45" class="edge">
<title>2&#45;&#45;21</title>
<path fill="none" stroke="#000000" d="M1247.9598,-275.0924C1197.6362,-409.1791 877.2881,-1262.7436 826.9229,-1396.9412"/>
</g>
<!-- 22 -->
<g id="node23" class="node">
<title>22</title>
<ellipse fill="#5e4fa2" stroke="#000000" cx="1328.5701" cy="-359.1763" rx="27" ry="18"/>
<text text-anchor="middle" x="1328.5701" y="-355.4763" font-family="Times,serif" font-size="14.00" fill="#000000">22</text>
</g>
<!-- 2&#45;&#45;22 -->
<g id="edge62" class="edge">
<title>2&#45;&#45;22</title>
<path fill="none" stroke="#000000" d="M1266.4917,-273.7328C1280.2937,-292.7296 1302.9269,-323.8815 1316.7163,-342.861"/>
</g>
<!-- 23 -->
<g id="node24" class="node">
<title>23</title>
<ellipse fill="#9e0142" stroke="#000000" cx="93.6818" cy="-414.6351" rx="27" ry="18"/>
<text text-anchor="middle" x="93.6818" y="-410.9351" font-family="Times,serif" font-size="14.00" fill="#000000">23</text>
</g>
<!-- 2&#45;&#45;23 -->
<g id="edge52" class="edge">
<title>2&#45;&#45;23</title>
<path fill="none" stroke="#000000" d="M1227.9009,-260.9947C1071.547,-282.1743 276.3922,-389.8853 120.2952,-411.0301"/>
</g>
<!-- 24 -->
<g id="node25" class="node">
<title>24</title>
<ellipse fill="#5e4fa2" stroke="#000000" cx="569.8663" cy="-34.8907" rx="27" ry="18"/>
<text text-anchor="middle" x="569.8663" y="-31.1907" font-family="Times,serif" font-size="14.00" fill="#000000">24</text>
</g>
<!-- 2&#45;&#45;24 -->
<g id="edge63" class="edge">
<title>2&#45;&#45;24</title>
<path fill="none" stroke="#000000" d="M1230.2382,-249.4585C1123.8635,-214.8953 700.804,-77.4349 594.3012,-42.8301"/>
</g>
<!-- 2&#45;&#45;26 -->
<g id="edge61" class="edge">
<title>2&#45;&#45;26</title>
<path fill="none" stroke="#000000" d="M1227.5066,-258.5941C1076.149,-265.3916 336.8023,-298.5957 185.3563,-305.3971"/>
</g>
<!-- 2&#45;&#45;28 -->
<g id="edge58" class="edge">
<title>2&#45;&#45;28</title>
<path fill="none" stroke="#000000" d="M1233.3651,-245.9454C1159.6168,-206.2597 915.1502,-74.7066 841.4651,-35.055"/>
</g>
<!-- 2&#45;&#45;29 -->
<g id="edge49" class="edge">
<title>2&#45;&#45;29</title>
<path fill="none" stroke="#000000" d="M1264.6962,-274.2609C1288.7281,-314.4835 1349.1407,-415.5971 1373.1252,-455.7404"/>
</g>
<!-- 2&#45;&#45;30 -->
<g id="edge54" class="edge">
<title>2&#45;&#45;30</title>
<path fill="none" stroke="#000000" d="M1244.3975,-274.4673C1165.7893,-406.0353 657.8006,-1256.2652 579.8874,-1386.6699"/>
</g>
<!-- 2&#45;&#45;31 -->
<g id="edge47" class="edge">
<title>2&#45;&#45;31</title>
<path fill="none" stroke="#000000" d="M1262.8665,-274.5249C1290.5975,-332.1088 1380.2125,-518.1963 1408.206,-576.3254"/>
</g>
<!-- 2&#45;&#45;34 -->
<g id="edge42" class="edge">
<title>2&#45;&#45;34</title>
<path fill="none" stroke="#000000" d="M1261.1909,-274.9157C1288.644,-348.0642 1393.8666,-628.4287 1421.3321,-701.6103"/>
</g>
<!-- 3&#45;&#45;5 -->
<g id="edge77" class="edge">
<title>3&#45;&#45;5</title>
<path fill="none" stroke="#000000" d="M159.8741,-1113.3428C170.4826,-995.4719 228.8681,-346.7568 239.3857,-229.8961"/>
</g>
<!-- 3&#45;&#45;6 -->
<g id="edge72" class="edge">
<title>3&#45;&#45;6</title>
<path fill="none" stroke="#000000" d="M151.5327,-1113.8982C129.0229,-1053.9211 56.1639,-859.7888 33.6742,-799.8653"/>
</g>
<!-- 3&#45;&#45;7 -->
<g id="edge76" class="edge">
<title>3&#45;&#45;7</title>
<path fill="none" stroke="#000000" d="M171.8913,-1147.365C187.2307,-1164.9224 211.9703,-1193.2392 227.3181,-1210.8061"/>
</g>
<!-- 3&#45;&#45;11 -->
<g id="edge79" class="edge">
<title>3&#45;&#45;11</title>
<path fill="none" stroke="#000000" d="M149.8673,-1114.3721C129.624,-1072.3365 78.122,-965.3914 57.8495,-923.2951"/>
</g>
<!-- 3&#45;&#45;13 -->
<g id="edge73" class="edge">
<title>3&#45;&#45;13</title>
<path fill="none" stroke="#000000" d="M179.2454,-1143.0314C264.9462,-1189.149 587.4205,-1362.6798 673.3881,-1408.9409"/>
</g>
<!-- 3&#45;&#45;14 -->
<g id="edge68" class="edge">
<title>3&#45;&#45;14</title>
<path fill="none" stroke="#000000" d="M148.1362,-1114.8393C136.0116,-1094.5461 115.7881,-1060.6977 103.6951,-1040.4575"/>
</g>
<!-- 3&#45;&#45;15 -->
<g id="edge78" class="edge">
<title>3&#45;&#45;15</title>
<path fill="none" stroke="#000000" d="M161.5195,-1113.5375C183.9396,-989.9925 313.7102,-274.8974 336.0986,-151.527"/>
</g>
<!-- 3&#45;&#45;16 -->
<g id="edge80" class="edge">
<title>3&#45;&#45;16</title>
<path fill="none" stroke="#000000" d="M154.9656,-1113.7822C138.9734,-1025.6578 68.8462,-639.2255 52.7631,-550.6003"/>
</g>
<!-- 3&#45;&#45;18 -->
<g id="edge81" class="edge">
<title>3&#45;&#45;18</title>
<path fill="none" stroke="#000000" d="M185.3222,-1132.9345C336.6799,-1139.732 1076.0265,-1172.9361 1227.4725,-1179.7375"/>
</g>
<!-- 3&#45;&#45;20 -->
<g id="edge66" class="edge">
<title>3&#45;&#45;20</title>
<path fill="none" stroke="#000000" d="M175.6102,-1145.5853C227.4178,-1186.9004 380.3586,-1308.8667 432.5261,-1350.4688"/>
</g>
<!-- 3&#45;&#45;22 -->
<g id="edge75" class="edge">
<title>3&#45;&#45;22</title>
<path fill="none" stroke="#000000" d="M177.5575,-1118.953C317.0941,-1026.8457 1168.5801,-464.7847 1308.9786,-372.1085"/>
</g>
<!-- 3&#45;&#45;25 -->
<g id="edge74" class="edge">
<title>3&#45;&#45;25</title>
<path fill="none" stroke="#000000" d="M173.6666,-1146.4855C207.8087,-1179.1286 289.3802,-1257.1191 323.7234,-1289.9545"/>
</g>
<!-- 3&#45;&#45;26 -->
<g id="edge67" class="edge">
<title>3&#45;&#45;26</title>
<path fill="none" stroke="#000000" d="M158.2203,-1113.7166C158.2203,-1004.7193 158.2203,-434.0567 158.2203,-324.7325"/>
</g>
<!-- 3&#45;&#45;27 -->
<g id="edge70" class="edge">
<title>3&#45;&#45;27</title>
<path fill="none" stroke="#000000" d="M185.4272,-1130.4955C343.6463,-1123.3898 1143.6971,-1087.4595 1301.5123,-1080.372"/>
</g>
<!-- 3&#45;&#45;28 -->
<g id="edge69" class="edge">
<title>3&#45;&#45;28</title>
<path fill="none" stroke="#000000" d="M168.3545,-1114.7556C245.0591,-986.3738 733.3426,-169.1249 810.1106,-40.6368"/>
</g>
<!-- 3&#45;&#45;29 -->
<g id="edge82" class="edge">
<title>3&#45;&#45;29</title>
<path fill="none" stroke="#000000" d="M179.4816,-1120.2762C328.3219,-1040.1818 1212.6136,-564.3241 1361.7997,-484.0437"/>
</g>
<!-- 3&#45;&#45;30 -->
<g id="edge71" class="edge">
<title>3&#45;&#45;30</title>
<path fill="none" stroke="#000000" d="M177.5227,-1144.4587C246.6673,-1190.1007 481.5278,-1345.1308 550.6056,-1390.7286"/>
</g>
<!-- 3&#45;&#45;31 -->
<g id="edge65" class="edge">
<title>3&#45;&#45;31</title>
<path fill="none" stroke="#000000" d="M181.1368,-1121.9224C336.8709,-1055.3584 1238.2802,-670.0776 1393.7941,-603.6078"/>
</g>
<!-- 4&#45;&#45;6 -->
<g id="edge100" class="edge">
<title>4&#45;&#45;6</title>
<path fill="none" stroke="#000000" d="M1039.409,-113.7967C910.7326,-198.7352 176.0743,-683.6789 46.5165,-769.1993"/>
</g>
<!-- 4&#45;&#45;7 -->
<g id="edge94" class="edge">
<title>4&#45;&#45;7</title>
<path fill="none" stroke="#000000" d="M1046.77,-117.4426C953.9792,-245.1581 346.2226,-1081.6634 252.9999,-1209.9734"/>
</g>
<!-- 4&#45;&#45;8 -->
<g id="edge90" class="edge">
<title>4&#45;&#45;8</title>
<path fill="none" stroke="#000000" d="M1035.7839,-91.3294C1015.4993,-82.6593 986.0209,-70.0597 965.7506,-61.3957"/>
</g>
<!-- 4&#45;&#45;11 -->
<g id="edge89" class="edge">
<title>4&#45;&#45;11</title>
<path fill="none" stroke="#000000" d="M1041.1274,-115.0687C918.5048,-212.857 189.9782,-793.8376 67.0707,-891.853"/>
</g>
<!-- 4&#45;&#45;13 -->
<g id="edge85" class="edge">
<title>4&#45;&#45;13</title>
<path fill="none" stroke="#000000" d="M1053.6353,-119.2471C1013.151,-265.9384 739.8715,-1256.1446 699.5296,-1402.3203"/>
</g>
<!-- 4&#45;&#45;15 -->
<g id="edge92" class="edge">
<title>4&#45;&#45;15</title>
<path fill="none" stroke="#000000" d="M1031.3261,-102.3269C917.2662,-107.4493 479.7317,-127.099 366.3487,-132.1911"/>
</g>
<!-- 4&#45;&#45;16 -->
<g id="edge93" class="edge">
<title>4&#45;&#45;16</title>
<path fill="none" stroke="#000000" d="M1035.6694,-110.9197C900.2695,-168.7924 207.7077,-464.8075 72.4063,-522.6381"/>
</g>
<!-- 4&#45;&#45;17 -->
<g id="edge91" class="edge">
<title>4&#45;&#45;17</title>
<path fill="none" stroke="#000000" d="M1033.0418,-95.2566C966.1926,-79.9988 786.9492,-39.0876 720.1318,-23.837"/>
</g>
<!-- 4&#45;&#45;19 -->
<g id="edge101" class="edge">
<title>4&#45;&#45;19</title>
<path fill="none" stroke="#000000" d="M1077.9049,-113.8144C1096.7346,-126.2438 1125.2544,-145.0695 1144.1637,-157.5514"/>
</g>
<!-- 4&#45;&#45;20 -->
<g id="edge87" class="edge">
<title>4&#45;&#45;20</title>
<path fill="none" stroke="#000000" d="M1050.2738,-118.4799C982.6177,-258.9693 525.9201,-1207.3116 458.5018,-1347.3073"/>
</g>
<!-- 4&#45;&#45;21 -->
<g id="edge86" class="edge">
<title>4&#45;&#45;21</title>
<path fill="none" stroke="#000000" d="M1055.3644,-119.1695C1028.8578,-265.233 849.9308,-1251.2018 823.5174,-1396.752"/>
</g>
<!-- 4&#45;&#45;22 -->
<g id="edge96" class="edge">
<title>4&#45;&#45;22</title>
<path fill="none" stroke="#000000" d="M1074.3226,-116.0908C1122.03,-161.7038 1265.0826,-298.4761 1312.8477,-344.1441"/>
</g>
<!-- 4&#45;&#45;23 -->
<g id="edge97" class="edge">
<title>4&#45;&#45;23</title>
<path fill="none" stroke="#000000" d="M1034.3078,-109.0072C900.2886,-152.5527 253.3622,-362.7518 118.3919,-406.6063"/>
</g>
<!-- 4&#45;&#45;24 -->
<g id="edge102" class="edge">
<title>4&#45;&#45;24</title>
<path fill="none" stroke="#000000" d="M1032.0176,-97.4933C946.8542,-85.9572 681.7137,-50.0415 596.5163,-38.5007"/>
</g>
<!-- 4&#45;&#45;26 -->
<g id="edge88" class="edge">
<title>4&#45;&#45;26</title>
<path fill="none" stroke="#000000" d="M1032.6667,-107.0291C901.6128,-136.9413 314.1644,-271.0226 183.8709,-300.7612"/>
</g>
<!-- 4&#45;&#45;28 -->
<g id="edge98" class="edge">
<title>4&#45;&#45;28</title>
<path fill="none" stroke="#000000" d="M1034.0304,-93.1028C988.232,-78.222 890.4386,-46.447 844.7417,-31.5992"/>
</g>
<!-- 4&#45;&#45;30 -->
<g id="edge95" class="edge">
<title>4&#45;&#45;30</title>
<path fill="none" stroke="#000000" d="M1051.92,-119.0148C997.5708,-263.8279 630.6983,-1241.3561 576.54,-1385.6602"/>
</g>
<!-- 4&#45;&#45;31 -->
<g id="edge99" class="edge">
<title>4&#45;&#45;31</title>
<path fill="none" stroke="#000000" d="M1070.5548,-117.4945C1125.0295,-192.4725 1350.1177,-502.2798 1404.6857,-577.3863"/>
</g>
<!-- 4&#45;&#45;32 -->
<g id="edge84" class="edge">
<title>4&#45;&#45;32</title>
<path fill="none" stroke="#000000" d="M1037.5686,-112.441C904.4085,-184.0975 181.1025,-573.325 48.0415,-644.9282"/>
</g>
<!-- 4&#45;&#45;34 -->
<g id="edge83" class="edge">
<title>4&#45;&#45;34</title>
<path fill="none" stroke="#000000" d="M1068.7123,-117.9524C1121.4235,-206.176 1365.1719,-614.1421 1417.8613,-702.3293"/>
</g>
<!-- 5&#45;&#45;7 -->
<g id="edge106" class="edge">
<title>5&#45;&#45;7</title>
<path fill="none" stroke="#000000" d="M241.0093,-229.8974C241.0093,-354.3254 241.0093,-1083.9359 241.0093,-1208.4188"/>
</g>
<!-- 5&#45;&#45;8 -->
<g id="edge104" class="edge">
<title>5&#45;&#45;8</title>
<path fill="none" stroke="#000000" d="M266.8238,-205.9642C377.0132,-180.8142 807.3363,-82.5957 917.2607,-57.5062"/>
</g>
<!-- 5&#45;&#45;9 -->
<g id="edge122" class="edge">
<title>5&#45;&#45;9</title>
<path fill="none" stroke="#000000" d="M251.2026,-228.9168C330.9467,-362.3859 853.719,-1237.3593 932.8974,-1369.8816"/>
</g>
<!-- 5&#45;&#45;12 -->
<g id="edge107" class="edge">
<title>5&#45;&#45;12</title>
<path fill="none" stroke="#000000" d="M254.768,-227.6042C360.5759,-348.711 1043.7244,-1130.6374 1149.8205,-1252.0742"/>
</g>
<!-- 5&#45;&#45;15 -->
<g id="edge121" class="edge">
<title>5&#45;&#45;15</title>
<path fill="none" stroke="#000000" d="M258.5975,-197.8301C276.5042,-183.5499 304.1004,-161.5427 321.952,-147.3065"/>
</g>
<!-- 5&#45;&#45;16 -->
<g id="edge118" class="edge">
<title>5&#45;&#45;16</title>
<path fill="none" stroke="#000000" d="M230.9809,-228.6409C197.9588,-283.9107 92.8414,-459.8475 59.6282,-515.437"/>
</g>
<!-- 5&#45;&#45;17 -->
<g id="edge110" class="edge">
<title>5&#45;&#45;17</title>
<path fill="none" stroke="#000000" d="M263.8117,-202.1099C341.3233,-168.9799 594.1306,-60.9249 671.7106,-27.7656"/>
</g>
<!-- 5&#45;&#45;19 -->
<g id="edge111" class="edge">
<title>5&#45;&#45;19</title>
<path fill="none" stroke="#000000" d="M268.1228,-210.6385C403.1106,-204.5762 1001.5526,-177.7001 1136.5437,-171.6376"/>
</g>
<!-- 5&#45;&#45;21 -->
<g id="edge105" class="edge">
<title>5&#45;&#45;21</title>
<path fill="none" stroke="#000000" d="M249.4211,-229.3234C315.2284,-365.9735 746.6358,-1261.8004 811.9762,-1397.4811"/>
</g>
<!-- 5&#45;&#45;22 -->
<g id="edge108" class="edge">
<title>5&#45;&#45;22</title>
<path fill="none" stroke="#000000" d="M267.6229,-215.4612C417.141,-235.7148 1151.2443,-335.1558 1301.6245,-355.5262"/>
</g>
<!-- 5&#45;&#45;23 -->
<g id="edge112" class="edge">
<title>5&#45;&#45;23</title>
<path fill="none" stroke="#000000" d="M229.202,-228.1076C201.6161,-266.0763 133.1866,-360.2613 105.5454,-398.3063"/>
</g>
<!-- 5&#45;&#45;24 -->
<g id="edge116" class="edge">
<title>5&#45;&#45;24</title>
<path fill="none" stroke="#000000" d="M262.0811,-200.517C321.3376,-168.6296 488.9841,-78.4153 548.5444,-46.3645"/>
</g>
<!-- 5&#45;&#45;25 -->
<g id="edge113" class="edge">
<title>5&#45;&#45;25</title>
<path fill="none" stroke="#000000" d="M242.6348,-229.9165C254.3641,-360.24 325.9393,-1155.5049 337.741,-1286.6333"/>
</g>
<!-- 5&#45;&#45;26 -->
<g id="edge114" class="edge">
<title>5&#45;&#45;26</title>
<path fill="none" stroke="#000000" d="M227.3384,-227.5038C211.9989,-245.0612 187.2593,-273.378 171.9116,-290.9449"/>
</g>
<!-- 5&#45;&#45;27 -->
<g id="edge119" class="edge">
<title>5&#45;&#45;27</title>
<path fill="none" stroke="#000000" d="M258.5328,-225.8307C387.0804,-328.3439 1182.9758,-963.0493 1311.1533,-1065.2675"/>
</g>
<!-- 5&#45;&#45;28 -->
<g id="edge109" class="edge">
<title>5&#45;&#45;28</title>
<path fill="none" stroke="#000000" d="M265.5291,-203.8892C360.1694,-173.1387 701.0857,-62.3683 795.7366,-31.6143"/>
</g>
<!-- 5&#45;&#45;29 -->
<g id="edge117" class="edge">
<title>5&#45;&#45;29</title>
<path fill="none" stroke="#000000" d="M266.7379,-217.7285C419.3931,-252.5711 1204.7418,-431.8218 1357.4267,-466.6711"/>
</g>
<!-- 5&#45;&#45;30 -->
<g id="edge120" class="edge">
<title>5&#45;&#45;30</title>
<path fill="none" stroke="#000000" d="M245.9133,-229.6253C283.6261,-366.2743 527.1185,-1248.5493 564.934,-1385.5708"/>
</g>
<!-- 5&#45;&#45;32 -->
<g id="edge103" class="edge">
<title>5&#45;&#45;32</title>
<path fill="none" stroke="#000000" d="M232.7511,-229.0047C198.7214,-299.668 69.5475,-567.9004 35.3491,-638.914"/>
</g>
<!-- 5&#45;&#45;33 -->
<g id="edge123" class="edge">
<title>5&#45;&#45;33</title>
<path fill="none" stroke="#000000" d="M262.1652,-223.2406C406.9202,-301.1366 1249.8447,-754.7336 1395.2751,-832.9931"/>
</g>
<!-- 5&#45;&#45;34 -->
<g id="edge115" class="edge">
<title>5&#45;&#45;34</title>
<path fill="none" stroke="#000000" d="M263.9222,-221.6496C413.9994,-285.7956 1255.1277,-645.3111 1405.0565,-709.3938"/>
</g>
<!-- 6&#45;&#45;7 -->
<g id="edge136" class="edge">
<title>6&#45;&#45;7</title>
<path fill="none" stroke="#000000" d="M35.2583,-799.2305C69.2879,-869.8938 198.4619,-1138.1262 232.6602,-1209.1399"/>
</g>
<!-- 6&#45;&#45;8 -->
<g id="edge125" class="edge">
<title>6&#45;&#45;8</title>
<path fill="none" stroke="#000000" d="M44.4792,-768.1428C159.7309,-676.2326 809.4582,-158.0924 925.2758,-65.731"/>
</g>
<!-- 6&#45;&#45;10 -->
<g id="edge142" class="edge">
<title>6&#45;&#45;10</title>
<path fill="none" stroke="#000000" d="M37.0436,-765.2718C94.6209,-668.9036 382.2298,-187.5274 440.0565,-90.7419"/>
</g>
<!-- 6&#45;&#45;11 -->
<g id="edge129" class="edge">
<title>6&#45;&#45;11</title>
<path fill="none" stroke="#000000" d="M30.267,-800.0848C34.5268,-823.5581 41.9353,-864.3822 46.197,-887.8661"/>
</g>
<!-- 6&#45;&#45;12 -->
<g id="edge128" class="edge">
<title>6&#45;&#45;12</title>
<path fill="none" stroke="#000000" d="M49.962,-791.8964C196.1467,-854.3788 995.4142,-1196.0021 1140.9229,-1258.1955"/>
</g>
<!-- 6&#45;&#45;14 -->
<g id="edge127" class="edge">
<title>6&#45;&#45;14</title>
<path fill="none" stroke="#000000" d="M31.9033,-799.8486C44.2348,-844.5308 76.4321,-961.1952 88.7713,-1005.9053"/>
</g>
<!-- 6&#45;&#45;15 -->
<g id="edge141" class="edge">
<title>6&#45;&#45;15</title>
<path fill="none" stroke="#000000" d="M35.3556,-764.7314C79.649,-672.7552 286.6498,-242.9137 331.0064,-150.8062"/>
</g>
<!-- 6&#45;&#45;16 -->
<g id="edge137" class="edge">
<title>6&#45;&#45;16</title>
<path fill="none" stroke="#000000" d="M28.6521,-763.7254C32.8173,-717.4468 43.7088,-596.4323 47.8437,-550.4892"/>
</g>
<!-- 6&#45;&#45;17 -->
<g id="edge126" class="edge">
<title>6&#45;&#45;17</title>
<path fill="none" stroke="#000000" d="M40.6372,-766.4729C126.8028,-667.8485 594.8413,-132.1353 680.9428,-33.5843"/>
</g>
<!-- 6&#45;&#45;19 -->
<g id="edge135" class="edge">
<title>6&#45;&#45;19</title>
<path fill="none" stroke="#000000" d="M48.1925,-770.6778C190.1193,-694.3038 1001.1454,-257.872 1142.6122,-181.7455"/>
</g>
<!-- 6&#45;&#45;20 -->
<g id="edge124" class="edge">
<title>6&#45;&#45;20</title>
<path fill="none" stroke="#000000" d="M38.9837,-798.5761C100.186,-882.8138 377.359,-1264.3098 438.3148,-1348.2083"/>
</g>
<!-- 6&#45;&#45;21 -->
<g id="edge131" class="edge">
<title>6&#45;&#45;21</title>
<path fill="none" stroke="#000000" d="M44.6806,-796.1818C150.4095,-880.4978 697.9895,-1317.1783 802.881,-1400.8264"/>
</g>
<!-- 6&#45;&#45;23 -->
<g id="edge138" class="edge">
<title>6&#45;&#45;23</title>
<path fill="none" stroke="#000000" d="M30.2613,-764.1105C41.5833,-701.7212 79.1144,-494.908 90.4267,-432.572"/>
</g>
<!-- 6&#45;&#45;24 -->
<g id="edge133" class="edge">
<title>6&#45;&#45;24</title>
<path fill="none" stroke="#000000" d="M38.8434,-765.781C110.5569,-667.0758 486.0179,-150.298 557.9466,-51.2968"/>
</g>
<!-- 6&#45;&#45;25 -->
<g id="edge130" class="edge">
<title>6&#45;&#45;25</title>
<path fill="none" stroke="#000000" d="M37.0399,-798.886C84.0871,-877.6298 282.4182,-1209.58 329.3853,-1288.1898"/>
</g>
<!-- 6&#45;&#45;26 -->
<g id="edge140" class="edge">
<title>6&#45;&#45;26</title>
<path fill="none" stroke="#000000" d="M31.9045,-764.3109C52.5858,-689.374 132.5629,-399.5833 153.2912,-324.4761"/>
</g>
<!-- 6&#45;&#45;27 -->
<g id="edge139" class="edge">
<title>6&#45;&#45;27</title>
<path fill="none" stroke="#000000" d="M52.7068,-787.9494C218.6968,-825.8355 1137.4957,-1035.5454 1303.0178,-1073.3247"/>
</g>
<!-- 6&#45;&#45;30 -->
<g id="edge143" class="edge">
<title>6&#45;&#45;30</title>
<path fill="none" stroke="#000000" d="M40.6907,-797.7523C116.1693,-884.1445 480.8286,-1301.5306 556.2125,-1387.8145"/>
</g>
<!-- 6&#45;&#45;31 -->
<g id="edge134" class="edge">
<title>6&#45;&#45;31</title>
<path fill="none" stroke="#000000" d="M53.5191,-778.4897C228.4702,-754.791 1215.1862,-621.1312 1390.1262,-597.434"/>
</g>
<!-- 6&#45;&#45;32 -->
<g id="edge144" class="edge">
<title>6&#45;&#45;32</title>
<path fill="none" stroke="#000000" d="M27,-764.0535C27,-740.269 27,-698.6263 27,-674.6554"/>
</g>
<!-- 6&#45;&#45;33 -->
<g id="edge132" class="edge">
<title>6&#45;&#45;33</title>
<path fill="none" stroke="#000000" d="M54.1355,-783.3007C230.6035,-791.2258 1213.4851,-835.3671 1389.6165,-843.2772"/>
</g>
<!-- 7&#45;&#45;9 -->
<g id="edge154" class="edge">
<title>7&#45;&#45;9</title>
<path fill="none" stroke="#000000" d="M266.8238,-1232.369C377.0132,-1257.519 807.3363,-1355.7374 917.2607,-1380.8269"/>
</g>
<!-- 7&#45;&#45;10 -->
<g id="edge160" class="edge">
<title>7&#45;&#45;10</title>
<path fill="none" stroke="#000000" d="M244.2951,-1208.3708C268.7768,-1073.4656 422.4592,-226.6057 446.9154,-91.8409"/>
</g>
<!-- 7&#45;&#45;11 -->
<g id="edge167" class="edge">
<title>7&#45;&#45;11</title>
<path fill="none" stroke="#000000" d="M230.9809,-1209.6922C197.9588,-1154.4224 92.8414,-978.4856 59.6282,-922.8961"/>
</g>
<!-- 7&#45;&#45;12 -->
<g id="edge152" class="edge">
<title>7&#45;&#45;12</title>
<path fill="none" stroke="#000000" d="M268.1228,-1227.6946C403.1106,-1233.7569 1001.5526,-1260.633 1136.5437,-1266.6955"/>
</g>
<!-- 7&#45;&#45;13 -->
<g id="edge158" class="edge">
<title>7&#45;&#45;13</title>
<path fill="none" stroke="#000000" d="M263.8117,-1236.2232C341.3233,-1269.3532 594.1306,-1377.4082 671.7106,-1410.5675"/>
</g>
<!-- 7&#45;&#45;14 -->
<g id="edge150" class="edge">
<title>7&#45;&#45;14</title>
<path fill="none" stroke="#000000" d="M229.202,-1210.2255C201.6161,-1172.2568 133.1866,-1078.0718 105.5454,-1040.0268"/>
</g>
<!-- 7&#45;&#45;15 -->
<g id="edge155" class="edge">
<title>7&#45;&#45;15</title>
<path fill="none" stroke="#000000" d="M242.6348,-1208.4166C254.3641,-1078.0931 325.9393,-282.8282 337.741,-151.6998"/>
</g>
<!-- 7&#45;&#45;16 -->
<g id="edge147" class="edge">
<title>7&#45;&#45;16</title>
<path fill="none" stroke="#000000" d="M236.0821,-1208.6235C209.2635,-1111.4485 81.099,-647.0549 54.3626,-550.1778"/>
</g>
<!-- 7&#45;&#45;17 -->
<g id="edge151" class="edge">
<title>7&#45;&#45;17</title>
<path fill="none" stroke="#000000" d="M247.5957,-1208.9277C299.0676,-1071.7814 636.1956,-173.5069 687.9071,-35.7222"/>
</g>
<!-- 7&#45;&#45;18 -->
<g id="edge159" class="edge">
<title>7&#45;&#45;18</title>
<path fill="none" stroke="#000000" d="M268.1207,-1225.2594C411.8387,-1218.805 1083.4901,-1188.6411 1227.4133,-1182.1775"/>
</g>
<!-- 7&#45;&#45;19 -->
<g id="edge162" class="edge">
<title>7&#45;&#45;19</title>
<path fill="none" stroke="#000000" d="M254.768,-1210.7289C360.5759,-1089.6221 1043.7244,-307.6957 1149.8205,-186.2589"/>
</g>
<!-- 7&#45;&#45;20 -->
<g id="edge164" class="edge">
<title>7&#45;&#45;20</title>
<path fill="none" stroke="#000000" d="M260.314,-1239.2199C300.1645,-1265.525 391.1254,-1325.5677 430.936,-1351.8465"/>
</g>
<!-- 7&#45;&#45;21 -->
<g id="edge156" class="edge">
<title>7&#45;&#45;21</title>
<path fill="none" stroke="#000000" d="M265.5291,-1234.4439C360.1694,-1265.1944 701.0857,-1375.9648 795.7366,-1406.7188"/>
</g>
<!-- 7&#45;&#45;22 -->
<g id="edge148" class="edge">
<title>7&#45;&#45;22</title>
<path fill="none" stroke="#000000" d="M258.5328,-1212.5025C387.0804,-1109.9892 1182.9758,-475.2838 1311.1533,-373.0656"/>
</g>
<!-- 7&#45;&#45;23 -->
<g id="edge157" class="edge">
<title>7&#45;&#45;23</title>
<path fill="none" stroke="#000000" d="M237.7256,-1208.3822C218.1105,-1100.2941 116.6106,-540.9831 96.9734,-432.7735"/>
</g>
<!-- 7&#45;&#45;24 -->
<g id="edge161" class="edge">
<title>7&#45;&#45;24</title>
<path fill="none" stroke="#000000" d="M245.9133,-1208.7078C283.6261,-1072.0588 527.1185,-189.7838 564.934,-52.7624"/>
</g>
<!-- 7&#45;&#45;25 -->
<g id="edge145" class="edge">
<title>7&#45;&#45;25</title>
<path fill="none" stroke="#000000" d="M258.5975,-1240.503C276.5042,-1254.7832 304.1004,-1276.7904 321.952,-1291.0266"/>
</g>
<!-- 7&#45;&#45;26 -->
<g id="edge163" class="edge">
<title>7&#45;&#45;26</title>
<path fill="none" stroke="#000000" d="M239.3556,-1208.1024C228.747,-1090.2316 170.3616,-441.5165 159.844,-324.6557"/>
</g>
<!-- 7&#45;&#45;27 -->
<g id="edge165" class="edge">
<title>7&#45;&#45;27</title>
<path fill="none" stroke="#000000" d="M267.6229,-1222.8719C417.141,-1202.6183 1151.2443,-1103.1773 1301.6245,-1082.8069"/>
</g>
<!-- 7&#45;&#45;28 -->
<g id="edge168" class="edge">
<title>7&#45;&#45;28</title>
<path fill="none" stroke="#000000" d="M249.4211,-1209.0097C315.2284,-1072.3596 746.6358,-176.5328 811.9762,-40.852"/>
</g>
<!-- 7&#45;&#45;29 -->
<g id="edge149" class="edge">
<title>7&#45;&#45;29</title>
<path fill="none" stroke="#000000" d="M260.3544,-1213.7074C397.8375,-1122.9556 1225.5812,-576.5668 1363.6466,-485.4306"/>
</g>
<!-- 7&#45;&#45;30 -->
<g id="edge153" class="edge">
<title>7&#45;&#45;30</title>
<path fill="none" stroke="#000000" d="M262.0811,-1237.8162C321.3376,-1269.7035 488.9841,-1359.9179 548.5444,-1391.9686"/>
</g>
<!-- 7&#45;&#45;32 -->
<g id="edge146" class="edge">
<title>7&#45;&#45;32</title>
<path fill="none" stroke="#000000" d="M234.3698,-1208.786C202.4804,-1123.817 65.2804,-758.249 33.5621,-673.7358"/>
</g>
<!-- 7&#45;&#45;34 -->
<g id="edge166" class="edge">
<title>7&#45;&#45;34</title>
<path fill="none" stroke="#000000" d="M263.9222,-1216.6836C413.9994,-1152.5375 1255.1277,-793.022 1405.0565,-728.9393"/>
</g>
<!-- 8&#45;&#45;10 -->
<g id="edge169" class="edge">
<title>8&#45;&#45;10</title>
<path fill="none" stroke="#000000" d="M915.7446,-52.8667C829.5953,-56.7356 563.3359,-68.6934 477.3039,-72.5571"/>
</g>
<!-- 8&#45;&#45;11 -->
<g id="edge184" class="edge">
<title>8&#45;&#45;11</title>
<path fill="none" stroke="#000000" d="M927.4307,-66.4724C818.8671,-170.2698 173.8683,-786.9519 65.0525,-890.9904"/>
</g>
<!-- 8&#45;&#45;12 -->
<g id="edge174" class="edge">
<title>8&#45;&#45;12</title>
<path fill="none" stroke="#000000" d="M946.23,-69.7826C971.5417,-209.2621 1134.9674,-1109.8118 1160.3482,-1249.6713"/>
</g>
<!-- 8&#45;&#45;13 -->
<g id="edge173" class="edge">
<title>8&#45;&#45;13</title>
<path fill="none" stroke="#000000" d="M939.6614,-69.7041C912.5126,-219.3061 725.1704,-1251.6468 697.8733,-1402.066"/>
</g>
<!-- 8&#45;&#45;14 -->
<g id="edge171" class="edge">
<title>8&#45;&#45;14</title>
<path fill="none" stroke="#000000" d="M929.2548,-67.3077C828.8742,-182.2025 207.3738,-893.567 107.2822,-1008.131"/>
</g>
<!-- 8&#45;&#45;15 -->
<g id="edge180" class="edge">
<title>8&#45;&#45;15</title>
<path fill="none" stroke="#000000" d="M916.226,-55.2638C816.4168,-68.7839 465.9976,-116.2514 366.1334,-129.779"/>
</g>
<!-- 8&#45;&#45;16 -->
<g id="edge190" class="edge">
<title>8&#45;&#45;16</title>
<path fill="none" stroke="#000000" d="M921.7339,-63.0561C800.1735,-128.4705 192.9577,-455.2273 70.8708,-520.925"/>
</g>
<!-- 8&#45;&#45;17 -->
<g id="edge175" class="edge">
<title>8&#45;&#45;17</title>
<path fill="none" stroke="#000000" d="M916.3575,-48.0447C868.6765,-41.5859 769.138,-28.1025 721.3237,-21.6256"/>
</g>
<!-- 8&#45;&#45;18 -->
<g id="edge179" class="edge">
<title>8&#45;&#45;18</title>
<path fill="none" stroke="#000000" d="M947.8341,-69.3842C984.2713,-201.4114 1212.7998,-1029.4657 1249.607,-1162.8336"/>
</g>
<!-- 8&#45;&#45;19 -->
<g id="edge177" class="edge">
<title>8&#45;&#45;19</title>
<path fill="none" stroke="#000000" d="M964.1021,-63.034C1006.2907,-85.7367 1100.4231,-136.3915 1142.5591,-159.0658"/>
</g>
<!-- 8&#45;&#45;20 -->
<g id="edge186" class="edge">
<title>8&#45;&#45;20</title>
<path fill="none" stroke="#000000" d="M936.3456,-69.2123C882.1563,-213.599 510.8618,-1202.9097 456.7636,-1347.0538"/>
</g>
<!-- 8&#45;&#45;21 -->
<g id="edge170" class="edge">
<title>8&#45;&#45;21</title>
<path fill="none" stroke="#000000" d="M941.3199,-69.6296C927.911,-218.6145 835.3819,-1246.6972 821.8998,-1396.496"/>
</g>
<!-- 8&#45;&#45;22 -->
<g id="edge188" class="edge">
<title>8&#45;&#45;22</title>
<path fill="none" stroke="#000000" d="M960.2575,-65.4568C1024.1564,-116.4145 1246.3125,-293.5781 1310.8572,-345.0507"/>
</g>
<!-- 8&#45;&#45;23 -->
<g id="edge176" class="edge">
<title>8&#45;&#45;23</title>
<path fill="none" stroke="#000000" d="M919.7825,-61.5427C798.4256,-113.4132 236.7612,-353.4801 116.42,-404.9163"/>
</g>
<!-- 8&#45;&#45;24 -->
<g id="edge182" class="edge">
<title>8&#45;&#45;24</title>
<path fill="none" stroke="#000000" d="M915.8076,-50.4269C846.8926,-47.332 665.6999,-39.1946 596.8955,-36.1046"/>
</g>
<!-- 8&#45;&#45;27 -->
<g id="edge189" class="edge">
<title>8&#45;&#45;27</title>
<path fill="none" stroke="#000000" d="M949.6319,-69.4798C996.5391,-194.4636 1275.472,-937.6777 1321.9932,-1061.6329"/>
</g>
<!-- 8&#45;&#45;28 -->
<g id="edge187" class="edge">
<title>8&#45;&#45;28</title>
<path fill="none" stroke="#000000" d="M917.2216,-45.7757C896.2845,-40.9969 866.8736,-34.2841 845.9456,-29.5074"/>
</g>
<!-- 8&#45;&#45;29 -->
<g id="edge183" class="edge">
<title>8&#45;&#45;29</title>
<path fill="none" stroke="#000000" d="M958.6065,-66.6255C1027.0724,-132.0856 1299.5943,-392.6432 1367.6858,-457.7454"/>
</g>
<!-- 8&#45;&#45;30 -->
<g id="edge172" class="edge">
<title>8&#45;&#45;30</title>
<path fill="none" stroke="#000000" d="M938.0162,-69.4812C897.2382,-217.237 615.8462,-1236.8378 574.8454,-1385.4008"/>
</g>
<!-- 8&#45;&#45;31 -->
<g id="edge178" class="edge">
<title>8&#45;&#45;31</title>
<path fill="none" stroke="#000000" d="M956.6047,-67.2875C1025.4749,-146.1158 1333.9214,-499.1613 1402.9201,-578.1366"/>
</g>
<!-- 8&#45;&#45;32 -->
<g id="edge181" class="edge">
<title>8&#45;&#45;32</title>
<path fill="none" stroke="#000000" d="M923.3841,-64.5531C803.2159,-143.8755 166.0132,-564.4893 46.3714,-643.4642"/>
</g>
<!-- 8&#45;&#45;33 -->
<g id="edge185" class="edge">
<title>8&#45;&#45;33</title>
<path fill="none" stroke="#000000" d="M953.0517,-68.5719C1015.2,-172.5907 1344.7471,-724.1597 1406.6232,-827.7228"/>
</g>
<!-- 9&#45;&#45;10 -->
<g id="edge191" class="edge">
<title>9&#45;&#45;10</title>
<path fill="none" stroke="#000000" d="M936.3456,-1369.1208C882.1563,-1224.7341 510.8618,-235.4234 456.7636,-91.2794"/>
</g>
<!-- 9&#45;&#45;11 -->
<g id="edge203" class="edge">
<title>9&#45;&#45;11</title>
<path fill="none" stroke="#000000" d="M921.7339,-1375.277C800.1735,-1309.8626 192.9577,-983.1058 70.8708,-917.4081"/>
</g>
<!-- 9&#45;&#45;12 -->
<g id="edge201" class="edge">
<title>9&#45;&#45;12</title>
<path fill="none" stroke="#000000" d="M964.1021,-1375.2991C1006.2907,-1352.5965 1100.4231,-1301.9417 1142.5591,-1279.2673"/>
</g>
<!-- 9&#45;&#45;16 -->
<g id="edge193" class="edge">
<title>9&#45;&#45;16</title>
<path fill="none" stroke="#000000" d="M927.4307,-1371.8607C818.8671,-1268.0633 173.8683,-651.3813 65.0525,-547.3427"/>
</g>
<!-- 9&#45;&#45;18 -->
<g id="edge207" class="edge">
<title>9&#45;&#45;18</title>
<path fill="none" stroke="#000000" d="M962.4349,-1373.8183C1018.4066,-1336.8717 1179.157,-1230.7613 1235.1195,-1193.8207"/>
</g>
<!-- 9&#45;&#45;19 -->
<g id="edge198" class="edge">
<title>9&#45;&#45;19</title>
<path fill="none" stroke="#000000" d="M946.23,-1368.5505C971.5417,-1229.0711 1134.9674,-328.5213 1160.3482,-188.6618"/>
</g>
<!-- 9&#45;&#45;20 -->
<g id="edge204" class="edge">
<title>9&#45;&#45;20</title>
<path fill="none" stroke="#000000" d="M915.7446,-1385.4665C829.5953,-1381.5975 563.3359,-1369.6398 477.3039,-1365.7761"/>
</g>
<!-- 9&#45;&#45;21 -->
<g id="edge192" class="edge">
<title>9&#45;&#45;21</title>
<path fill="none" stroke="#000000" d="M917.2216,-1392.5575C896.2845,-1397.3362 866.8736,-1404.0491 845.9456,-1408.8257"/>
</g>
<!-- 9&#45;&#45;23 -->
<g id="edge199" class="edge">
<title>9&#45;&#45;23</title>
<path fill="none" stroke="#000000" d="M929.2548,-1371.0254C828.8742,-1256.1306 207.3738,-544.7661 107.2822,-430.2021"/>
</g>
<!-- 9&#45;&#45;24 -->
<g id="edge200" class="edge">
<title>9&#45;&#45;24</title>
<path fill="none" stroke="#000000" d="M938.0162,-1368.8519C897.2382,-1221.0961 615.8462,-201.4953 574.8454,-52.9324"/>
</g>
<!-- 9&#45;&#45;25 -->
<g id="edge202" class="edge">
<title>9&#45;&#45;25</title>
<path fill="none" stroke="#000000" d="M916.226,-1383.0693C816.4168,-1369.5492 465.9976,-1322.0817 366.1334,-1308.5542"/>
</g>
<!-- 9&#45;&#45;26 -->
<g id="edge205" class="edge">
<title>9&#45;&#45;26</title>
<path fill="none" stroke="#000000" d="M930.9265,-1370.1546C840.0086,-1245.0169 261.2465,-448.4191 170.2534,-323.1779"/>
</g>
<!-- 9&#45;&#45;27 -->
<g id="edge195" class="edge">
<title>9&#45;&#45;27</title>
<path fill="none" stroke="#000000" d="M960.2575,-1372.8763C1024.1564,-1321.9187 1246.3125,-1144.7551 1310.8572,-1093.2824"/>
</g>
<!-- 9&#45;&#45;29 -->
<g id="edge194" class="edge">
<title>9&#45;&#45;29</title>
<path fill="none" stroke="#000000" d="M951.3396,-1369.2428C1006.7924,-1254.0938 1319.6818,-604.3723 1374.8551,-489.8039"/>
</g>
<!-- 9&#45;&#45;30 -->
<g id="edge197" class="edge">
<title>9&#45;&#45;30</title>
<path fill="none" stroke="#000000" d="M915.8076,-1387.9062C846.8926,-1391.0012 665.6999,-1399.1385 596.8955,-1402.2285"/>
</g>
<!-- 9&#45;&#45;32 -->
<g id="edge196" class="edge">
<title>9&#45;&#45;32</title>
<path fill="none" stroke="#000000" d="M925.4593,-1372.7485C810.2076,-1280.8384 160.4803,-762.6981 44.6628,-670.3367"/>
</g>
<!-- 9&#45;&#45;34 -->
<g id="edge206" class="edge">
<title>9&#45;&#45;34</title>
<path fill="none" stroke="#000000" d="M954.9269,-1370.1871C1021.9523,-1277.9347 1349.6389,-826.9127 1416.1356,-735.3879"/>
</g>
<!-- 10&#45;&#45;11 -->
<g id="edge212" class="edge">
<title>10&#45;&#45;11</title>
<path fill="none" stroke="#000000" d="M441.8243,-91.1545C389.6736,-199.4465 109.8081,-780.5932 57.7917,-888.6064"/>
</g>
<!-- 10&#45;&#45;13 -->
<g id="edge214" class="edge">
<title>10&#45;&#45;13</title>
<path fill="none" stroke="#000000" d="M453.4636,-91.7917C480.3374,-239.8785 664.4717,-1254.5418 691.3003,-1402.3797"/>
</g>
<!-- 10&#45;&#45;15 -->
<g id="edge210" class="edge">
<title>10&#45;&#45;15</title>
<path fill="none" stroke="#000000" d="M429.0914,-85.1304C409.3748,-95.7403 380.1031,-111.4921 360.4119,-122.0884"/>
</g>
<!-- 10&#45;&#45;16 -->
<g id="edge213" class="edge">
<title>10&#45;&#45;16</title>
<path fill="none" stroke="#000000" d="M436.4001,-89.563C374.7444,-160.1336 124.7413,-446.2852 63.2038,-516.7204"/>
</g>
<!-- 10&#45;&#45;17 -->
<g id="edge219" class="edge">
<title>10&#45;&#45;17</title>
<path fill="none" stroke="#000000" d="M475.8834,-67.9111C522.8156,-57.1992 621.8976,-34.5843 668.8465,-23.8686"/>
</g>
<!-- 10&#45;&#45;19 -->
<g id="edge209" class="edge">
<title>10&#45;&#45;19</title>
<path fill="none" stroke="#000000" d="M476.8605,-77.3868C589.3077,-92.6188 1024.1555,-151.5229 1136.8582,-166.7896"/>
</g>
<!-- 10&#45;&#45;20 -->
<g id="edge215" class="edge">
<title>10&#45;&#45;20</title>
<path fill="none" stroke="#000000" d="M450.194,-92.0215C450.194,-237.1124 450.194,-1202.1966 450.194,-1346.5158"/>
</g>
<!-- 10&#45;&#45;24 -->
<g id="edge220" class="edge">
<title>10&#45;&#45;24</title>
<path fill="none" stroke="#000000" d="M474.7002,-65.812C495.3517,-59.1019 524.7506,-49.5497 545.3928,-42.8426"/>
</g>
<!-- 10&#45;&#45;25 -->
<g id="edge218" class="edge">
<title>10&#45;&#45;25</title>
<path fill="none" stroke="#000000" d="M448.5416,-92.1338C435.8211,-233.4703 353.6176,-1146.8266 341.0095,-1286.9134"/>
</g>
<!-- 10&#45;&#45;26 -->
<g id="edge211" class="edge">
<title>10&#45;&#45;26</title>
<path fill="none" stroke="#000000" d="M432.8041,-87.6425C380.9966,-128.9577 228.0557,-250.9239 175.8883,-292.5261"/>
</g>
<!-- 10&#45;&#45;28 -->
<g id="edge216" class="edge">
<title>10&#45;&#45;28</title>
<path fill="none" stroke="#000000" d="M476.8084,-70.1694C545.006,-60.9314 725.4359,-36.4905 793.6411,-27.2515"/>
</g>
<!-- 10&#45;&#45;30 -->
<g id="edge217" class="edge">
<title>10&#45;&#45;30</title>
<path fill="none" stroke="#000000" d="M451.8402,-92.0652C465.147,-239.9167 554.9721,-1237.9552 568.2323,-1385.2871"/>
</g>
<!-- 10&#45;&#45;33 -->
<g id="edge208" class="edge">
<title>10&#45;&#45;33</title>
<path fill="none" stroke="#000000" d="M467.7935,-87.8097C587.3948,-183.1885 1279.6629,-735.2539 1399.0951,-830.4979"/>
</g>
<!-- 11&#45;&#45;14 -->
<g id="edge229" class="edge">
<title>11&#45;&#45;14</title>
<path fill="none" stroke="#000000" d="M56.0872,-923.5277C64.4224,-945.7367 78.6608,-983.6747 87.0173,-1005.9405"/>
</g>
<!-- 11&#45;&#45;15 -->
<g id="edge223" class="edge">
<title>11&#45;&#45;15</title>
<path fill="none" stroke="#000000" d="M56.0681,-888.3048C94.9663,-784.6609 293.9282,-254.5289 332.7981,-150.9603"/>
</g>
<!-- 11&#45;&#45;16 -->
<g id="edge225" class="edge">
<title>11&#45;&#45;16</title>
<path fill="none" stroke="#000000" d="M49.468,-887.8785C49.468,-824.791 49.468,-614.1973 49.468,-550.7114"/>
</g>
<!-- 11&#45;&#45;17 -->
<g id="edge222" class="edge">
<title>11&#45;&#45;17</title>
<path fill="none" stroke="#000000" d="M61.4954,-889.3364C142.0434,-778.4715 602.3268,-144.9458 682.6138,-34.4402"/>
</g>
<!-- 11&#45;&#45;21 -->
<g id="edge221" class="edge">
<title>11&#45;&#45;21</title>
<path fill="none" stroke="#000000" d="M68.9069,-918.7223C176.076,-989.4639 693.8414,-1331.2379 800.8761,-1401.8909"/>
</g>
<!-- 11&#45;&#45;23 -->
<g id="edge228" class="edge">
<title>11&#45;&#45;23</title>
<path fill="none" stroke="#000000" d="M51.094,-887.8241C58.0347,-810.7064 85.1403,-509.5384 92.0643,-432.6062"/>
</g>
<!-- 11&#45;&#45;24 -->
<g id="edge224" class="edge">
<title>11&#45;&#45;24</title>
<path fill="none" stroke="#000000" d="M59.6298,-888.8827C125.7497,-778.2167 494.1826,-161.5637 559.8517,-51.6522"/>
</g>
<!-- 11&#45;&#45;27 -->
<g id="edge230" class="edge">
<title>11&#45;&#45;27</title>
<path fill="none" stroke="#000000" d="M76.1838,-909.5096C242.6468,-932.0586 1135.9667,-1053.067 1302.0012,-1075.5579"/>
</g>
<!-- 11&#45;&#45;30 -->
<g id="edge227" class="edge">
<title>11&#45;&#45;30</title>
<path fill="none" stroke="#000000" d="M65.0425,-920.7815C141.6525,-994.0281 477.8799,-1315.4945 554.3525,-1388.6098"/>
</g>
<!-- 11&#45;&#45;32 -->
<g id="edge231" class="edge">
<title>11&#45;&#45;32</title>
<path fill="none" stroke="#000000" d="M47.8158,-887.5341C43.6507,-841.2555 32.7592,-720.2411 28.6242,-674.2979"/>
</g>
<!-- 11&#45;&#45;34 -->
<g id="edge226" class="edge">
<title>11&#45;&#45;34</title>
<path fill="none" stroke="#000000" d="M76.0784,-902.2861C250.3748,-878.676 1227.2427,-746.3503 1401.3667,-722.7636"/>
</g>
<!-- 12&#45;&#45;13 -->
<g id="edge233" class="edge">
<title>12&#45;&#45;13</title>
<path fill="none" stroke="#000000" d="M1139.0982,-1275.8934C1058.0357,-1302.2321 799.5822,-1386.2088 718.8756,-1412.432"/>
</g>
<!-- 12&#45;&#45;14 -->
<g id="edge248" class="edge">
<title>12&#45;&#45;14</title>
<path fill="none" stroke="#000000" d="M1138.003,-1262.0575C991.8112,-1228.6901 265.3422,-1062.8783 119.2861,-1029.542"/>
</g>
<!-- 12&#45;&#45;16 -->
<g id="edge232" class="edge">
<title>12&#45;&#45;16</title>
<path fill="none" stroke="#000000" d="M1144.3197,-1255.1477C1008.937,-1165.7824 204.5997,-634.844 68.9025,-545.271"/>
</g>
<!-- 12&#45;&#45;18 -->
<g id="edge244" class="edge">
<title>12&#45;&#45;18</title>
<path fill="none" stroke="#000000" d="M1179.5009,-1252.7664C1196.1941,-1236.8061 1222.3234,-1211.824 1238.9478,-1195.9294"/>
</g>
<!-- 12&#45;&#45;19 -->
<g id="edge239" class="edge">
<title>12&#45;&#45;19</title>
<path fill="none" stroke="#000000" d="M1163.6586,-1249.7798C1163.6586,-1118.9296 1163.6586,-320.4502 1163.6586,-188.7918"/>
</g>
<!-- 12&#45;&#45;20 -->
<g id="edge235" class="edge">
<title>12&#45;&#45;20</title>
<path fill="none" stroke="#000000" d="M1136.9921,-1271.5254C1024.5449,-1286.7574 589.6971,-1345.6616 476.9944,-1360.9282"/>
</g>
<!-- 12&#45;&#45;23 -->
<g id="edge242" class="edge">
<title>12&#45;&#45;23</title>
<path fill="none" stroke="#000000" d="M1145.9799,-1253.8149C1018.2745,-1151.9732 238.2917,-529.9577 111.1851,-428.5936"/>
</g>
<!-- 12&#45;&#45;24 -->
<g id="edge238" class="edge">
<title>12&#45;&#45;24</title>
<path fill="none" stroke="#000000" d="M1155.2646,-1250.4828C1088.5192,-1111.8846 644.5568,-189.9871 578.1664,-52.1261"/>
</g>
<!-- 12&#45;&#45;25 -->
<g id="edge237" class="edge">
<title>12&#45;&#45;25</title>
<path fill="none" stroke="#000000" d="M1136.7023,-1269.1238C1011.9857,-1274.7248 491.7154,-1298.0902 366.5547,-1303.7112"/>
</g>
<!-- 12&#45;&#45;26 -->
<g id="edge241" class="edge">
<title>12&#45;&#45;26</title>
<path fill="none" stroke="#000000" d="M1147.8656,-1252.8135C1030.1953,-1140.3092 291.5265,-434.0695 173.9786,-321.6822"/>
</g>
<!-- 12&#45;&#45;27 -->
<g id="edge247" class="edge">
<title>12&#45;&#45;27</title>
<path fill="none" stroke="#000000" d="M1177.4352,-1252.1446C1208.5547,-1216.5255 1283.977,-1130.1977 1314.9486,-1094.7478"/>
</g>
<!-- 12&#45;&#45;28 -->
<g id="edge236" class="edge">
<title>12&#45;&#45;28</title>
<path fill="none" stroke="#000000" d="M1158.6719,-1249.8442C1119.6597,-1108.4866 863.9103,-181.7996 825.1748,-41.4448"/>
</g>
<!-- 12&#45;&#45;30 -->
<g id="edge234" class="edge">
<title>12&#45;&#45;30</title>
<path fill="none" stroke="#000000" d="M1137.7623,-1273.8239C1039.8809,-1296.1647 693.1087,-1375.3131 595.5643,-1397.577"/>
</g>
<!-- 12&#45;&#45;31 -->
<g id="edge243" class="edge">
<title>12&#45;&#45;31</title>
<path fill="none" stroke="#000000" d="M1170.2953,-1250.2299C1205.9618,-1155.1967 1374.5812,-705.9121 1410.0745,-611.3404"/>
</g>
<!-- 12&#45;&#45;32 -->
<g id="edge245" class="edge">
<title>12&#45;&#45;32</title>
<path fill="none" stroke="#000000" d="M1142.4661,-1256.509C1000.5393,-1180.135 189.5132,-743.7032 48.0464,-667.5767"/>
</g>
<!-- 12&#45;&#45;33 -->
<g id="edge246" class="edge">
<title>12&#45;&#45;33</title>
<path fill="none" stroke="#000000" d="M1173.732,-1251.0533C1214.3509,-1183.0686 1365.8683,-929.4713 1406.5395,-861.399"/>
</g>
<!-- 12&#45;&#45;34 -->
<g id="edge240" class="edge">
<title>12&#45;&#45;34</title>
<path fill="none" stroke="#000000" d="M1172.0039,-1250.584C1211.5716,-1168.4208 1380.0017,-818.6722 1419.5737,-736.5"/>
</g>
<!-- 13&#45;&#45;16 -->
<g id="edge259" class="edge">
<title>13&#45;&#45;16</title>
<path fill="none" stroke="#000000" d="M682.5309,-1403.7788C601.9829,-1292.9139 141.6995,-659.3882 61.4125,-548.8826"/>
</g>
<!-- 13&#45;&#45;20 -->
<g id="edge253" class="edge">
<title>13&#45;&#45;20</title>
<path fill="none" stroke="#000000" d="M668.8689,-1414.4697C621.9368,-1403.7577 522.8547,-1381.1429 475.9059,-1370.4271"/>
</g>
<!-- 13&#45;&#45;21 -->
<g id="edge257" class="edge">
<title>13&#45;&#45;21</title>
<path fill="none" stroke="#000000" d="M721.525,-1419.122C742.5901,-1418.176 771.7428,-1416.8668 792.9067,-1415.9163"/>
</g>
<!-- 13&#45;&#45;24 -->
<g id="edge254" class="edge">
<title>13&#45;&#45;24</title>
<path fill="none" stroke="#000000" d="M692.9362,-1402.3093C679.3765,-1251.6493 585.0512,-203.6092 571.4891,-52.9215"/>
</g>
<!-- 13&#45;&#45;25 -->
<g id="edge251" class="edge">
<title>13&#45;&#45;25</title>
<path fill="none" stroke="#000000" d="M670.146,-1412.4011C605.262,-1391.319 429.05,-1334.0642 363.971,-1312.9188"/>
</g>
<!-- 13&#45;&#45;26 -->
<g id="edge260" class="edge">
<title>13&#45;&#45;26</title>
<path fill="none" stroke="#000000" d="M686.1337,-1402.8393C623.3641,-1272.4967 229.3308,-454.2781 166.6264,-324.0711"/>
</g>
<!-- 13&#45;&#45;29 -->
<g id="edge249" class="edge">
<title>13&#45;&#45;29</title>
<path fill="none" stroke="#000000" d="M706.5104,-1403.8825C790.1815,-1288.7191 1287.2893,-604.5089 1371.1548,-489.0779"/>
</g>
<!-- 13&#45;&#45;30 -->
<g id="edge258" class="edge">
<title>13&#45;&#45;30</title>
<path fill="none" stroke="#000000" d="M667.8088,-1416.7096C646.7702,-1413.8598 617.5988,-1409.9082 596.5716,-1407.0599"/>
</g>
<!-- 13&#45;&#45;31 -->
<g id="edge252" class="edge">
<title>13&#45;&#45;31</title>
<path fill="none" stroke="#000000" d="M708.3381,-1404.5609C799.2947,-1300.4527 1312.5116,-713.0287 1403.0096,-609.4454"/>
</g>
<!-- 13&#45;&#45;32 -->
<g id="edge250" class="edge">
<title>13&#45;&#45;32</title>
<path fill="none" stroke="#000000" d="M680.9211,-1404.7241C594.7556,-1306.0997 126.717,-770.3864 40.6156,-671.8354"/>
</g>
<!-- 13&#45;&#45;33 -->
<g id="edge256" class="edge">
<title>13&#45;&#45;33</title>
<path fill="none" stroke="#000000" d="M712.0499,-1406.3841C811.0164,-1327.4609 1299.8494,-937.6296 1399.0578,-858.5135"/>
</g>
<!-- 13&#45;&#45;34 -->
<g id="edge255" class="edge">
<title>13&#45;&#45;34</title>
<path fill="none" stroke="#000000" d="M710.2149,-1405.3639C806.4298,-1313.3731 1316.6177,-825.5835 1412.411,-733.9957"/>
</g>
<!-- 14&#45;&#45;15 -->
<g id="edge273" class="edge">
<title>14&#45;&#45;15</title>
<path fill="none" stroke="#000000" d="M98.5898,-1005.914C130.0408,-891.9542 302.9822,-265.315 334.4681,-151.2282"/>
</g>
<!-- 14&#45;&#45;16 -->
<g id="edge271" class="edge">
<title>14&#45;&#45;16</title>
<path fill="none" stroke="#000000" d="M92.0557,-1005.6313C85.115,-928.5137 58.0094,-627.3456 51.0854,-550.4135"/>
</g>
<!-- 14&#45;&#45;17 -->
<g id="edge265" class="edge">
<title>14&#45;&#45;17</title>
<path fill="none" stroke="#000000" d="M103.859,-1006.6642C176.2645,-885.4777 612.5836,-155.2027 684.5204,-34.8006"/>
</g>
<!-- 14&#45;&#45;20 -->
<g id="edge261" class="edge">
<title>14&#45;&#45;20</title>
<path fill="none" stroke="#000000" d="M109.4607,-1038.7841C168.4845,-1095.2167 375.88,-1293.5071 434.5973,-1349.6466"/>
</g>
<!-- 14&#45;&#45;22 -->
<g id="edge264" class="edge">
<title>14&#45;&#45;22</title>
<path fill="none" stroke="#000000" d="M114.8558,-1012.3038C264.2837,-931.8932 1158.364,-450.768 1307.4876,-370.5212"/>
</g>
<!-- 14&#45;&#45;23 -->
<g id="edge262" class="edge">
<title>14&#45;&#45;23</title>
<path fill="none" stroke="#000000" d="M93.6818,-1005.4699C93.6818,-915.8073 93.6818,-522.294 93.6818,-432.7921"/>
</g>
<!-- 14&#45;&#45;24 -->
<g id="edge272" class="edge">
<title>14&#45;&#45;24</title>
<path fill="none" stroke="#000000" d="M101.9468,-1006.5354C159.8069,-886.3877 503.5658,-172.565 561.5603,-52.1381"/>
</g>
<!-- 14&#45;&#45;26 -->
<g id="edge270" class="edge">
<title>14&#45;&#45;26</title>
<path fill="none" stroke="#000000" d="M95.3094,-1005.6136C104.2826,-905.9126 147.6351,-424.2274 156.5971,-324.6513"/>
</g>
<!-- 14&#45;&#45;27 -->
<g id="edge267" class="edge">
<title>14&#45;&#45;27</title>
<path fill="none" stroke="#000000" d="M120.6226,-1024.9079C283.7534,-1032.2341 1137.8356,-1070.591 1301.4556,-1077.9392"/>
</g>
<!-- 14&#45;&#45;30 -->
<g id="edge268" class="edge">
<title>14&#45;&#45;30</title>
<path fill="none" stroke="#000000" d="M111.1942,-1037.6636C185.9459,-1097.2762 477.8746,-1330.0815 552.4465,-1389.5507"/>
</g>
<!-- 14&#45;&#45;32 -->
<g id="edge263" class="edge">
<title>14&#45;&#45;32</title>
<path fill="none" stroke="#000000" d="M90.4204,-1005.7265C79.0984,-943.3372 41.5674,-736.5239 30.2551,-674.188"/>
</g>
<!-- 14&#45;&#45;33 -->
<g id="edge269" class="edge">
<title>14&#45;&#45;33</title>
<path fill="none" stroke="#000000" d="M120.4074,-1020.0777C290.5521,-997.0301 1220.8216,-871.0165 1390.1795,-848.0754"/>
</g>
<!-- 14&#45;&#45;34 -->
<g id="edge266" class="edge">
<title>14&#45;&#45;34</title>
<path fill="none" stroke="#000000" d="M119.4387,-1017.8191C288.1445,-979.3131 1233.6794,-763.5009 1402.2184,-725.033"/>
</g>
<!-- 15&#45;&#45;16 -->
<g id="edge285" class="edge">
<title>15&#45;&#45;16</title>
<path fill="none" stroke="#000000" d="M327.4822,-149.7887C280.4921,-214.465 108.1949,-451.6117 61.3129,-516.1392"/>
</g>
<!-- 15&#45;&#45;17 -->
<g id="edge289" class="edge">
<title>15&#45;&#45;17</title>
<path fill="none" stroke="#000000" d="M363.8002,-125.4698C428.6843,-104.3877 604.8962,-47.133 669.9752,-25.9875"/>
</g>
<!-- 15&#45;&#45;18 -->
<g id="edge278" class="edge">
<title>15&#45;&#45;18</title>
<path fill="none" stroke="#000000" d="M353.0358,-149.0232C457.9917,-269.1549 1135.6399,-1044.7857 1240.8818,-1165.2447"/>
</g>
<!-- 15&#45;&#45;19 -->
<g id="edge288" class="edge">
<title>15&#45;&#45;19</title>
<path fill="none" stroke="#000000" d="M366.3442,-134.6125C491.0608,-140.2135 1011.3311,-163.5789 1136.4918,-169.1999"/>
</g>
<!-- 15&#45;&#45;20 -->
<g id="edge275" class="edge">
<title>15&#45;&#45;20</title>
<path fill="none" stroke="#000000" d="M341.0402,-151.7611C353.7608,-293.0976 435.9643,-1206.4539 448.5724,-1346.5407"/>
</g>
<!-- 15&#45;&#45;22 -->
<g id="edge284" class="edge">
<title>15&#45;&#45;22</title>
<path fill="none" stroke="#000000" d="M365.0851,-139.2671C503.9897,-170.9712 1163.9415,-321.6009 1302.8652,-353.3093"/>
</g>
<!-- 15&#45;&#45;24 -->
<g id="edge281" class="edge">
<title>15&#45;&#45;24</title>
<path fill="none" stroke="#000000" d="M362.3296,-123.5961C406.5077,-104.7135 502.9125,-63.5081 547.0173,-44.6568"/>
</g>
<!-- 15&#45;&#45;25 -->
<g id="edge277" class="edge">
<title>15&#45;&#45;25</title>
<path fill="none" stroke="#000000" d="M339.3879,-151.8038C339.3879,-288.9123 339.3879,-1149.6039 339.3879,-1286.5698"/>
</g>
<!-- 15&#45;&#45;26 -->
<g id="edge274" class="edge">
<title>15&#45;&#45;26</title>
<path fill="none" stroke="#000000" d="M323.9416,-148.17C289.7996,-180.8132 208.228,-258.8036 173.8848,-291.639"/>
</g>
<!-- 15&#45;&#45;27 -->
<g id="edge286" class="edge">
<title>15&#45;&#45;27</title>
<path fill="none" stroke="#000000" d="M354.9256,-148.2574C470.6933,-258.9427 1197.4192,-953.7638 1313.0666,-1064.334"/>
</g>
<!-- 15&#45;&#45;28 -->
<g id="edge280" class="edge">
<title>15&#45;&#45;28</title>
<path fill="none" stroke="#000000" d="M365.2418,-127.5009C448.8349,-108.4213 711.2155,-48.5347 794.5733,-29.5088"/>
</g>
<!-- 15&#45;&#45;29 -->
<g id="edge282" class="edge">
<title>15&#45;&#45;29</title>
<path fill="none" stroke="#000000" d="M363.9054,-141.3681C505.466,-187.3639 1216.9099,-418.5261 1358.6001,-464.564"/>
</g>
<!-- 15&#45;&#45;30 -->
<g id="edge283" class="edge">
<title>15&#45;&#45;30</title>
<path fill="none" stroke="#000000" d="M342.646,-151.3556C368.5256,-293.964 540.5116,-1241.6851 566.5625,-1385.2371"/>
</g>
<!-- 15&#45;&#45;31 -->
<g id="edge279" class="edge">
<title>15&#45;&#45;31</title>
<path fill="none" stroke="#000000" d="M362.1364,-143.1251C502.825,-203.2582 1252.9784,-523.8892 1393.8349,-584.0942"/>
</g>
<!-- 15&#45;&#45;33 -->
<g id="edge287" class="edge">
<title>15&#45;&#45;33</title>
<path fill="none" stroke="#000000" d="M359.0052,-146.3512C492.3191,-234.3509 1263.9579,-743.7052 1397.0833,-831.5805"/>
</g>
<!-- 15&#45;&#45;34 -->
<g id="edge276" class="edge">
<title>15&#45;&#45;34</title>
<path fill="none" stroke="#000000" d="M360.6437,-144.8401C498.8003,-219.1853 1267.9582,-633.0869 1406.529,-707.655"/>
</g>
<!-- 16&#45;&#45;19 -->
<g id="edge292" class="edge">
<title>16&#45;&#45;19</title>
<path fill="none" stroke="#000000" d="M73.7756,-524.5444C220.962,-476.7206 991.5665,-226.336 1139.1943,-178.3688"/>
</g>
<!-- 16&#45;&#45;20 -->
<g id="edge299" class="edge">
<title>16&#45;&#45;20</title>
<path fill="none" stroke="#000000" d="M57.8377,-549.8223C109.9884,-658.1144 389.8539,-1239.261 441.8703,-1347.2742"/>
</g>
<!-- 16&#45;&#45;22 -->
<g id="edge291" class="edge">
<title>16&#45;&#45;22</title>
<path fill="none" stroke="#000000" d="M76.1838,-528.8235C242.6468,-506.2745 1135.9667,-385.2661 1302.0012,-362.7752"/>
</g>
<!-- 16&#45;&#45;23 -->
<g id="edge297" class="edge">
<title>16&#45;&#45;23</title>
<path fill="none" stroke="#000000" d="M56.0872,-514.8055C64.4224,-492.5964 78.6608,-454.6585 87.0173,-432.3927"/>
</g>
<!-- 16&#45;&#45;24 -->
<g id="edge293" class="edge">
<title>16&#45;&#45;24</title>
<path fill="none" stroke="#000000" d="M65.0425,-517.5517C141.6525,-444.305 477.8799,-122.8387 554.3525,-49.7234"/>
</g>
<!-- 16&#45;&#45;25 -->
<g id="edge296" class="edge">
<title>16&#45;&#45;25</title>
<path fill="none" stroke="#000000" d="M56.0681,-550.0283C94.9663,-653.6722 293.9282,-1183.8042 332.7981,-1287.3728"/>
</g>
<!-- 16&#45;&#45;26 -->
<g id="edge295" class="edge">
<title>16&#45;&#45;26</title>
<path fill="none" stroke="#000000" d="M57.821,-515.0971C78.0643,-473.0616 129.5663,-366.1165 149.8388,-324.0201"/>
</g>
<!-- 16&#45;&#45;29 -->
<g id="edge294" class="edge">
<title>16&#45;&#45;29</title>
<path fill="none" stroke="#000000" d="M76.4105,-531.2324C247.844,-523.5333 1184.7483,-481.4569 1356.213,-473.7564"/>
</g>
<!-- 16&#45;&#45;32 -->
<g id="edge298" class="edge">
<title>16&#45;&#45;32</title>
<path fill="none" stroke="#000000" d="M46.2009,-550.4453C41.9412,-573.9185 34.5327,-614.7426 30.271,-638.2265"/>
</g>
<!-- 16&#45;&#45;33 -->
<g id="edge290" class="edge">
<title>16&#45;&#45;33</title>
<path fill="none" stroke="#000000" d="M75.2575,-538.3287C246.7212,-577.4642 1220.3264,-799.6832 1391.0795,-838.6565"/>
</g>
<!-- 17&#45;&#45;18 -->
<g id="edge301" class="edge">
<title>17&#45;&#45;18</title>
<path fill="none" stroke="#000000" d="M702.9099,-35.3422C767.1355,-168.708 1181.8082,-1029.7847 1246.2088,-1163.5139"/>
</g>
<!-- 17&#45;&#45;19 -->
<g id="edge307" class="edge">
<title>17&#45;&#45;19</title>
<path fill="none" stroke="#000000" d="M719.1187,-25.9802C800.1812,-52.3189 1058.6347,-136.2956 1139.3413,-162.5188"/>
</g>
<!-- 17&#45;&#45;21 -->
<g id="edge302" class="edge">
<title>17&#45;&#45;21</title>
<path fill="none" stroke="#000000" d="M696.1937,-36.1701C709.8634,-188.053 804.9543,-1244.5998 818.6265,-1396.5106"/>
</g>
<!-- 17&#45;&#45;23 -->
<g id="edge310" class="edge">
<title>17&#45;&#45;23</title>
<path fill="none" stroke="#000000" d="M675.2466,-30.7475C584.7515,-90.4829 203.2627,-342.3014 112.9217,-401.935"/>
</g>
<!-- 17&#45;&#45;24 -->
<g id="edge303" class="edge">
<title>17&#45;&#45;24</title>
<path fill="none" stroke="#000000" d="M667.8088,-21.6235C646.7702,-24.4733 617.5988,-28.4249 596.5716,-31.2732"/>
</g>
<!-- 17&#45;&#45;26 -->
<g id="edge305" class="edge">
<title>17&#45;&#45;26</title>
<path fill="none" stroke="#000000" d="M673.5333,-29.3141C587.8324,-75.4317 265.3582,-248.9625 179.3906,-295.2236"/>
</g>
<!-- 17&#45;&#45;28 -->
<g id="edge309" class="edge">
<title>17&#45;&#45;28</title>
<path fill="none" stroke="#000000" d="M721.525,-19.2111C742.5901,-20.1571 771.7428,-21.4664 792.9067,-22.4168"/>
</g>
<!-- 17&#45;&#45;30 -->
<g id="edge300" class="edge">
<title>17&#45;&#45;30</title>
<path fill="none" stroke="#000000" d="M692.9362,-36.0238C679.3765,-186.6839 585.0512,-1234.7239 571.4891,-1385.4116"/>
</g>
<!-- 17&#45;&#45;31 -->
<g id="edge308" class="edge">
<title>17&#45;&#45;31</title>
<path fill="none" stroke="#000000" d="M712.0499,-31.9491C811.0164,-110.8722 1299.8494,-500.7035 1399.0578,-579.8196"/>
</g>
<!-- 17&#45;&#45;32 -->
<g id="edge306" class="edge">
<title>17&#45;&#45;32</title>
<path fill="none" stroke="#000000" d="M679.0398,-32.8373C588.8907,-119.0286 133.4396,-554.4845 42.7277,-641.2139"/>
</g>
<!-- 17&#45;&#45;33 -->
<g id="edge304" class="edge">
<title>17&#45;&#45;33</title>
<path fill="none" stroke="#000000" d="M708.3381,-33.7722C799.2947,-137.8804 1312.5116,-725.3045 1403.0096,-828.8877"/>
</g>
<!-- 18&#45;&#45;19 -->
<g id="edge313" class="edge">
<title>18&#45;&#45;19</title>
<path fill="none" stroke="#000000" d="M1252.9913,-1162.9875C1241.8377,-1039.0604 1176.4359,-312.3871 1165.2773,-188.4054"/>
</g>
<!-- 18&#45;&#45;21 -->
<g id="edge317" class="edge">
<title>18&#45;&#45;21</title>
<path fill="none" stroke="#000000" d="M1233.3651,-1192.3878C1159.6168,-1232.0734 915.1502,-1363.6265 841.4651,-1403.2782"/>
</g>
<!-- 18&#45;&#45;22 -->
<g id="edge319" class="edge">
<title>18&#45;&#45;22</title>
<path fill="none" stroke="#000000" d="M1256.257,-1162.6399C1266.1149,-1053.1102 1317.1697,-485.8449 1326.9494,-377.1827"/>
</g>
<!-- 18&#45;&#45;23 -->
<g id="edge322" class="edge">
<title>18&#45;&#45;23</title>
<path fill="none" stroke="#000000" d="M1234.9456,-1167.9768C1095.0541,-1075.6352 252.0616,-519.1807 113.0755,-427.4369"/>
</g>
<!-- 18&#45;&#45;24 -->
<g id="edge323" class="edge">
<title>18&#45;&#45;24</title>
<path fill="none" stroke="#000000" d="M1244.3975,-1163.8659C1165.7893,-1032.2978 657.8006,-182.068 579.8874,-51.6632"/>
</g>
<!-- 18&#45;&#45;26 -->
<g id="edge311" class="edge">
<title>18&#45;&#45;26</title>
<path fill="none" stroke="#000000" d="M1236.9428,-1166.8682C1107.3518,-1063.5229 304.9964,-423.6658 175.7784,-320.6179"/>
</g>
<!-- 18&#45;&#45;27 -->
<g id="edge314" class="edge">
<title>18&#45;&#45;27</title>
<path fill="none" stroke="#000000" d="M1266.4917,-1164.6004C1280.2937,-1145.6035 1302.9269,-1114.4516 1316.7163,-1095.4721"/>
</g>
<!-- 18&#45;&#45;28 -->
<g id="edge315" class="edge">
<title>18&#45;&#45;28</title>
<path fill="none" stroke="#000000" d="M1247.9598,-1163.2407C1197.6362,-1029.1541 877.2881,-175.5895 826.9229,-41.3919"/>
</g>
<!-- 18&#45;&#45;29 -->
<g id="edge321" class="edge">
<title>18&#45;&#45;29</title>
<path fill="none" stroke="#000000" d="M1257.9156,-1162.7329C1275.9155,-1063.5451 1361.9361,-589.5324 1379.8809,-490.6487"/>
</g>
<!-- 18&#45;&#45;30 -->
<g id="edge320" class="edge">
<title>18&#45;&#45;30</title>
<path fill="none" stroke="#000000" d="M1230.2382,-1188.8746C1123.8635,-1223.4378 700.804,-1360.8982 594.3012,-1395.503"/>
</g>
<!-- 18&#45;&#45;31 -->
<g id="edge318" class="edge">
<title>18&#45;&#45;31</title>
<path fill="none" stroke="#000000" d="M1259.5463,-1163.0645C1283.546,-1076.1036 1387.8289,-698.243 1411.7424,-611.5943"/>
</g>
<!-- 18&#45;&#45;33 -->
<g id="edge316" class="edge">
<title>18&#45;&#45;33</title>
<path fill="none" stroke="#000000" d="M1262.8665,-1163.8082C1290.5975,-1106.2243 1380.2125,-920.1369 1408.206,-862.0078"/>
</g>
<!-- 18&#45;&#45;34 -->
<g id="edge312" class="edge">
<title>18&#45;&#45;34</title>
<path fill="none" stroke="#000000" d="M1261.1909,-1163.4174C1288.644,-1090.2689 1393.8666,-809.9044 1421.3321,-736.7229"/>
</g>
<!-- 19&#45;&#45;20 -->
<g id="edge330" class="edge">
<title>19&#45;&#45;20</title>
<path fill="none" stroke="#000000" d="M1153.5728,-187.3006C1073.4604,-321.3863 541.0636,-1212.4684 460.4211,-1347.4412"/>
</g>
<!-- 19&#45;&#45;22 -->
<g id="edge333" class="edge">
<title>19&#45;&#45;22</title>
<path fill="none" stroke="#000000" d="M1177.4352,-186.1885C1208.5547,-221.8076 1283.977,-308.1354 1314.9486,-343.5853"/>
</g>
<!-- 19&#45;&#45;24 -->
<g id="edge327" class="edge">
<title>19&#45;&#45;24</title>
<path fill="none" stroke="#000000" d="M1137.7623,-164.5092C1039.8809,-142.1685 693.1087,-63.02 595.5643,-40.7561"/>
</g>
<!-- 19&#45;&#45;25 -->
<g id="edge329" class="edge">
<title>19&#45;&#45;25</title>
<path fill="none" stroke="#000000" d="M1151.6887,-186.8951C1058.0458,-315.7835 444.1578,-1160.7278 351.1792,-1288.7019"/>
</g>
<!-- 19&#45;&#45;26 -->
<g id="edge325" class="edge">
<title>19&#45;&#45;26</title>
<path fill="none" stroke="#000000" d="M1137.0246,-174.0277C994.8674,-193.2842 326.6739,-283.7972 184.7571,-303.0211"/>
</g>
<!-- 19&#45;&#45;27 -->
<g id="edge334" class="edge">
<title>19&#45;&#45;27</title>
<path fill="none" stroke="#000000" d="M1166.9528,-188.5723C1188.0618,-304.8926 1304.1355,-944.5114 1325.268,-1060.9613"/>
</g>
<!-- 19&#45;&#45;28 -->
<g id="edge328" class="edge">
<title>19&#45;&#45;28</title>
<path fill="none" stroke="#000000" d="M1140.8615,-160.676C1078.546,-134.041 905.8477,-60.2263 843.2767,-33.4821"/>
</g>
<!-- 19&#45;&#45;29 -->
<g id="edge335" class="edge">
<title>19&#45;&#45;29</title>
<path fill="none" stroke="#000000" d="M1175.4603,-186.6635C1213.574,-239.1225 1333.1093,-403.6488 1371.306,-456.222"/>
</g>
<!-- 19&#45;&#45;30 -->
<g id="edge336" class="edge">
<title>19&#45;&#45;30</title>
<path fill="none" stroke="#000000" d="M1155.2646,-187.8503C1088.5192,-326.4485 644.5568,-1248.346 578.1664,-1386.2071"/>
</g>
<!-- 19&#45;&#45;31 -->
<g id="edge332" class="edge">
<title>19&#45;&#45;31</title>
<path fill="none" stroke="#000000" d="M1173.732,-187.2799C1214.3509,-255.2645 1365.8683,-508.8619 1406.5395,-576.9341"/>
</g>
<!-- 19&#45;&#45;32 -->
<g id="edge331" class="edge">
<title>19&#45;&#45;32</title>
<path fill="none" stroke="#000000" d="M1140.6966,-180.2344C994.5119,-242.7167 195.2444,-584.34 49.7357,-646.5334"/>
</g>
<!-- 19&#45;&#45;33 -->
<g id="edge324" class="edge">
<title>19&#45;&#45;33</title>
<path fill="none" stroke="#000000" d="M1170.2953,-188.1032C1205.9618,-283.1364 1374.5812,-732.421 1410.0745,-826.9927"/>
</g>
<!-- 19&#45;&#45;34 -->
<g id="edge326" class="edge">
<title>19&#45;&#45;34</title>
<path fill="none" stroke="#000000" d="M1172.0039,-187.7491C1211.5716,-269.9123 1380.0017,-619.6609 1419.5737,-701.8332"/>
</g>
<!-- 20&#45;&#45;21 -->
<g id="edge337" class="edge">
<title>20&#45;&#45;21</title>
<path fill="none" stroke="#000000" d="M476.8084,-1368.1637C545.006,-1377.4017 725.4359,-1401.8426 793.6411,-1411.0816"/>
</g>
<!-- 20&#45;&#45;25 -->
<g id="edge342" class="edge">
<title>20&#45;&#45;25</title>
<path fill="none" stroke="#000000" d="M429.0914,-1353.2028C409.3748,-1342.5928 380.1031,-1326.841 360.4119,-1316.2448"/>
</g>
<!-- 20&#45;&#45;26 -->
<g id="edge340" class="edge">
<title>20&#45;&#45;26</title>
<path fill="none" stroke="#000000" d="M445.2487,-1346.6399C410.1034,-1219.2937 198.5043,-452.5815 163.2102,-324.696"/>
</g>
<!-- 20&#45;&#45;27 -->
<g id="edge341" class="edge">
<title>20&#45;&#45;27</title>
<path fill="none" stroke="#000000" d="M474.6036,-1356.6274C600.8128,-1315.6195 1178.3509,-1127.966 1304.2785,-1087.0497"/>
</g>
<!-- 20&#45;&#45;28 -->
<g id="edge339" class="edge">
<title>20&#45;&#45;28</title>
<path fill="none" stroke="#000000" d="M455.1456,-1346.617C495.8436,-1199.151 774.6988,-188.7416 815.3285,-41.5235"/>
</g>
<!-- 20&#45;&#45;30 -->
<g id="edge338" class="edge">
<title>20&#45;&#45;30</title>
<path fill="none" stroke="#000000" d="M474.7002,-1372.5211C495.3517,-1379.2312 524.7506,-1388.7835 545.3928,-1395.4905"/>
</g>
<!-- 21&#45;&#45;22 -->
<g id="edge347" class="edge">
<title>21&#45;&#45;22</title>
<path fill="none" stroke="#000000" d="M828.661,-1397.248C889.3293,-1271.2691 1259.8711,-501.8312 1320.2548,-376.443"/>
</g>
<!-- 21&#45;&#45;25 -->
<g id="edge344" class="edge">
<title>21&#45;&#45;25</title>
<path fill="none" stroke="#000000" d="M794.4086,-1408.7868C710.8155,-1389.7072 448.4349,-1329.8205 365.0771,-1310.7946"/>
</g>
<!-- 21&#45;&#45;26 -->
<g id="edge349" class="edge">
<title>21&#45;&#45;26</title>
<path fill="none" stroke="#000000" d="M810.1283,-1397.726C733.4238,-1269.3442 245.1403,-452.0953 168.3723,-323.6073"/>
</g>
<!-- 21&#45;&#45;27 -->
<g id="edge343" class="edge">
<title>21&#45;&#45;27</title>
<path fill="none" stroke="#000000" d="M839.5681,-1401.9442C920.0851,-1348.7954 1228.6918,-1145.0859 1309.2452,-1091.9131"/>
</g>
<!-- 21&#45;&#45;30 -->
<g id="edge348" class="edge">
<title>21&#45;&#45;30</title>
<path fill="none" stroke="#000000" d="M792.9891,-1413.4629C744.8232,-1411.2998 645.248,-1406.8278 597.1061,-1404.6658"/>
</g>
<!-- 21&#45;&#45;32 -->
<g id="edge346" class="edge">
<title>21&#45;&#45;32</title>
<path fill="none" stroke="#000000" d="M804.7725,-1399.8778C704.0916,-1303.617 143.572,-767.7054 42.5893,-671.1561"/>
</g>
<!-- 21&#45;&#45;33 -->
<g id="edge345" class="edge">
<title>21&#45;&#45;33</title>
<path fill="none" stroke="#000000" d="M835.9077,-1399.7294C919.9876,-1319.3408 1317.4887,-939.2908 1401.1603,-859.2926"/>
</g>
<!-- 22&#45;&#45;23 -->
<g id="edge358" class="edge">
<title>22&#45;&#45;23</title>
<path fill="none" stroke="#000000" d="M1301.6292,-360.3862C1138.4985,-367.7124 284.4162,-406.0693 120.7962,-413.4174"/>
</g>
<!-- 22&#45;&#45;25 -->
<g id="edge351" class="edge">
<title>22&#45;&#45;25</title>
<path fill="none" stroke="#000000" d="M1313.0324,-374.0318C1197.2646,-484.7171 470.5387,-1179.5382 354.8914,-1290.1084"/>
</g>
<!-- 22&#45;&#45;26 -->
<g id="edge352" class="edge">
<title>22&#45;&#45;26</title>
<path fill="none" stroke="#000000" d="M1301.3632,-357.9544C1143.1441,-350.8488 343.0933,-314.9184 185.2781,-307.8309"/>
</g>
<!-- 22&#45;&#45;28 -->
<g id="edge354" class="edge">
<title>22&#45;&#45;28</title>
<path fill="none" stroke="#000000" d="M1309.2645,-346.4328C1228.7475,-293.2839 920.1407,-89.5744 839.5873,-36.4016"/>
</g>
<!-- 22&#45;&#45;29 -->
<g id="edge355" class="edge">
<title>22&#45;&#45;29</title>
<path fill="none" stroke="#000000" d="M1336.862,-376.3947C1347.1236,-397.7031 1364.4985,-433.7825 1374.796,-455.1655"/>
</g>
<!-- 22&#45;&#45;30 -->
<g id="edge356" class="edge">
<title>22&#45;&#45;30</title>
<path fill="none" stroke="#000000" d="M1316.6526,-375.5792C1227.8586,-497.7936 670.4591,-1264.9883 581.7574,-1387.0756"/>
</g>
<!-- 22&#45;&#45;31 -->
<g id="edge350" class="edge">
<title>22&#45;&#45;31</title>
<path fill="none" stroke="#000000" d="M1335.1897,-376.8143C1351.5514,-420.4098 1393.7494,-532.8459 1410.0653,-576.3196"/>
</g>
<!-- 22&#45;&#45;32 -->
<g id="edge353" class="edge">
<title>22&#45;&#45;32</title>
<path fill="none" stroke="#000000" d="M1302.8633,-365.0437C1136.8732,-402.9298 218.0743,-612.6397 52.5523,-650.419"/>
</g>
<!-- 22&#45;&#45;34 -->
<g id="edge357" class="edge">
<title>22&#45;&#45;34</title>
<path fill="none" stroke="#000000" d="M1333.4969,-377.0282C1350.4115,-438.317 1406.0046,-639.7541 1422.9645,-701.2068"/>
</g>
<!-- 23&#45;&#45;24 -->
<g id="edge359" class="edge">
<title>23&#45;&#45;24</title>
<path fill="none" stroke="#000000" d="M111.1942,-400.6695C185.9459,-341.0569 477.8746,-108.2516 552.4465,-48.7825"/>
</g>
<!-- 23&#45;&#45;26 -->
<g id="edge363" class="edge">
<title>23&#45;&#45;26</title>
<path fill="none" stroke="#000000" d="M103.7659,-397.7571C115.8905,-377.4639 136.114,-343.6155 148.207,-323.3753"/>
</g>
<!-- 23&#45;&#45;27 -->
<g id="edge364" class="edge">
<title>23&#45;&#45;27</title>
<path fill="none" stroke="#000000" d="M114.8558,-426.0294C264.2837,-506.4399 1158.364,-987.5651 1307.4876,-1067.8119"/>
</g>
<!-- 23&#45;&#45;28 -->
<g id="edge360" class="edge">
<title>23&#45;&#45;28</title>
<path fill="none" stroke="#000000" d="M115.0335,-403.1453C221.3355,-345.9417 692.605,-92.3408 798.9097,-35.1358"/>
</g>
<!-- 23&#45;&#45;32 -->
<g id="edge365" class="edge">
<title>23&#45;&#45;32</title>
<path fill="none" stroke="#000000" d="M88.7785,-432.4017C76.447,-477.0839 44.2497,-593.7484 31.9105,-638.4585"/>
</g>
<!-- 23&#45;&#45;33 -->
<g id="edge361" class="edge">
<title>23&#45;&#45;33</title>
<path fill="none" stroke="#000000" d="M118.0599,-422.5561C282.4283,-475.9626 1227.2995,-782.9699 1392.1204,-836.5234"/>
</g>
<!-- 23&#45;&#45;34 -->
<g id="edge362" class="edge">
<title>23&#45;&#45;34</title>
<path fill="none" stroke="#000000" d="M119.4387,-420.514C288.1445,-459.02 1233.6794,-674.8322 1402.2184,-713.3001"/>
</g>
<!-- 24&#45;&#45;25 -->
<g id="edge373" class="edge">
<title>24&#45;&#45;25</title>
<path fill="none" stroke="#000000" d="M566.6081,-52.8444C540.7285,-195.4528 368.7425,-1143.1739 342.6917,-1286.7259"/>
</g>
<!-- 24&#45;&#45;26 -->
<g id="edge371" class="edge">
<title>24&#45;&#45;26</title>
<path fill="none" stroke="#000000" d="M550.5639,-47.6321C481.4193,-93.274 246.5588,-248.3041 177.481,-293.9019"/>
</g>
<!-- 24&#45;&#45;28 -->
<g id="edge370" class="edge">
<title>24&#45;&#45;28</title>
<path fill="none" stroke="#000000" d="M597.1397,-33.6658C645.3056,-31.5027 744.8807,-27.0308 793.0227,-24.8687"/>
</g>
<!-- 24&#45;&#45;29 -->
<g id="edge369" class="edge">
<title>24&#45;&#45;29</title>
<path fill="none" stroke="#000000" d="M591.202,-46.3719C705.8643,-108.0743 1247.9483,-399.7822 1362.0537,-461.1849"/>
</g>
<!-- 24&#45;&#45;30 -->
<g id="edge368" class="edge">
<title>24&#45;&#45;30</title>
<path fill="none" stroke="#000000" d="M569.8663,-52.9476C569.8663,-202.5347 569.8663,-1234.7728 569.8663,-1385.1771"/>
</g>
<!-- 24&#45;&#45;31 -->
<g id="edge367" class="edge">
<title>24&#45;&#45;31</title>
<path fill="none" stroke="#000000" d="M589.1433,-47.6154C702.7542,-122.6092 1283.8665,-506.1981 1397.3947,-581.1374"/>
</g>
<!-- 24&#45;&#45;32 -->
<g id="edge372" class="edge">
<title>24&#45;&#45;32</title>
<path fill="none" stroke="#000000" d="M556.1755,-50.561C480.697,-136.9532 116.0377,-554.3393 40.6537,-640.6232"/>
</g>
<!-- 24&#45;&#45;33 -->
<g id="edge374" class="edge">
<title>24&#45;&#45;33</title>
<path fill="none" stroke="#000000" d="M585.654,-49.9853C691.3851,-151.0746 1295.5743,-728.7387 1400.9627,-829.5003"/>
</g>
<!-- 24&#45;&#45;34 -->
<g id="edge366" class="edge">
<title>24&#45;&#45;34</title>
<path fill="none" stroke="#000000" d="M587.3951,-48.8694C698.149,-137.1928 1299.7485,-616.9523 1410.4201,-705.21"/>
</g>
<!-- 25&#45;&#45;26 -->
<g id="edge378" class="edge">
<title>25&#45;&#45;26</title>
<path fill="none" stroke="#000000" d="M336.0887,-1286.7514C313.6686,-1163.2064 183.898,-448.1113 161.5096,-324.741"/>
</g>
<!-- 25&#45;&#45;28 -->
<g id="edge375" class="edge">
<title>25&#45;&#45;28</title>
<path fill="none" stroke="#000000" d="M346.0027,-1287.3062C399.4732,-1144.8345 760.414,-183.1111 813.6966,-41.1401"/>
</g>
<!-- 25&#45;&#45;29 -->
<g id="edge381" class="edge">
<title>25&#45;&#45;29</title>
<path fill="none" stroke="#000000" d="M357.0667,-1290.8329C482.8418,-1190.5306 1240.7683,-586.1044 1365.7293,-486.4513"/>
</g>
<!-- 25&#45;&#45;30 -->
<g id="edge380" class="edge">
<title>25&#45;&#45;30</title>
<path fill="none" stroke="#000000" d="M362.3296,-1314.737C406.5077,-1333.6196 502.9125,-1374.825 547.0173,-1393.6763"/>
</g>
<!-- 25&#45;&#45;31 -->
<g id="edge377" class="edge">
<title>25&#45;&#45;31</title>
<path fill="none" stroke="#000000" d="M359.0052,-1291.9819C492.3191,-1203.9822 1263.9579,-694.6279 1397.0833,-606.7526"/>
</g>
<!-- 25&#45;&#45;32 -->
<g id="edge376" class="edge">
<title>25&#45;&#45;32</title>
<path fill="none" stroke="#000000" d="M331.0323,-1287.5806C286.7389,-1195.6044 79.7381,-765.763 35.3815,-673.6554"/>
</g>
<!-- 25&#45;&#45;34 -->
<g id="edge379" class="edge">
<title>25&#45;&#45;34</title>
<path fill="none" stroke="#000000" d="M360.6437,-1293.493C498.8003,-1219.1478 1267.9582,-805.2462 1406.529,-730.6781"/>
</g>
<!-- 26&#45;&#45;28 -->
<g id="edge385" class="edge">
<title>26&#45;&#45;28</title>
<path fill="none" stroke="#000000" d="M181.0093,-296.8753C282.7575,-253.3861 694.9814,-77.1931 797.2278,-33.4909"/>
</g>
<!-- 26&#45;&#45;30 -->
<g id="edge382" class="edge">
<title>26&#45;&#45;30</title>
<path fill="none" stroke="#000000" d="M164.853,-324.2886C213.5088,-453.9314 514.7583,-1256.6077 563.274,-1385.8773"/>
</g>
<!-- 26&#45;&#45;31 -->
<g id="edge384" class="edge">
<title>26&#45;&#45;31</title>
<path fill="none" stroke="#000000" d="M183.928,-312.4834C346.3596,-349.5573 1228.664,-550.9376 1390.9748,-587.984"/>
</g>
<!-- 26&#45;&#45;32 -->
<g id="edge383" class="edge">
<title>26&#45;&#45;32</title>
<path fill="none" stroke="#000000" d="M151.5327,-324.4349C129.0229,-384.412 56.1639,-578.5443 33.6742,-638.4678"/>
</g>
<!-- 27&#45;&#45;28 -->
<g id="edge387" class="edge">
<title>27&#45;&#45;28</title>
<path fill="none" stroke="#000000" d="M1320.1715,-1061.7171C1259.5033,-935.7382 888.9615,-166.3003 828.5777,-40.9121"/>
</g>
<!-- 27&#45;&#45;30 -->
<g id="edge388" class="edge">
<title>27&#45;&#45;30</title>
<path fill="none" stroke="#000000" d="M1305.4493,-1089.0392C1193.0733,-1137.0709 704.7792,-1345.7779 592.8066,-1393.6373"/>
</g>
<!-- 27&#45;&#45;32 -->
<g id="edge386" class="edge">
<title>27&#45;&#45;32</title>
<path fill="none" stroke="#000000" d="M1304.0181,-1071.1794C1140.782,-1018.1408 213.8951,-716.977 51.3356,-664.1582"/>
</g>
<!-- 27&#45;&#45;33 -->
<g id="edge390" class="edge">
<title>27&#45;&#45;33</title>
<path fill="none" stroke="#000000" d="M1335.1897,-1061.5188C1351.5514,-1017.9233 1393.7494,-905.4872 1410.0653,-862.0135"/>
</g>
<!-- 27&#45;&#45;34 -->
<g id="edge389" class="edge">
<title>27&#45;&#45;34</title>
<path fill="none" stroke="#000000" d="M1333.4969,-1061.3049C1350.4115,-1000.0161 1406.0046,-798.579 1422.9645,-737.1263"/>
</g>
<!-- 28&#45;&#45;29 -->
<g id="edge392" class="edge">
<title>28&#45;&#45;29</title>
<path fill="none" stroke="#000000" d="M837.7264,-37.5723C921.5114,-104.3887 1281.6799,-391.6135 1365.628,-458.5598"/>
</g>
<!-- 28&#45;&#45;30 -->
<g id="edge391" class="edge">
<title>28&#45;&#45;30</title>
<path fill="none" stroke="#000000" d="M817.005,-41.5958C789.7756,-191.6419 600.3594,-1235.4114 573.125,-1385.4851"/>
</g>
<!-- 28&#45;&#45;32 -->
<g id="edge393" class="edge">
<title>28&#45;&#45;32</title>
<path fill="none" stroke="#000000" d="M802.5819,-37.7452C696.853,-122.0612 149.273,-558.7416 44.3815,-642.3898"/>
</g>
<!-- 29&#45;&#45;30 -->
<g id="edge395" class="edge">
<title>29&#45;&#45;30</title>
<path fill="none" stroke="#000000" d="M1369.3909,-488.3128C1271.4928,-600.3662 682.0782,-1275.0055 583.7655,-1387.5334"/>
</g>
<!-- 29&#45;&#45;31 -->
<g id="edge394" class="edge">
<title>29&#45;&#45;31</title>
<path fill="none" stroke="#000000" d="M1388.1055,-490.4436C1394.4346,-513.3767 1405.3431,-552.9027 1411.682,-575.8711"/>
</g>
<!-- 30&#45;&#45;33 -->
<g id="edge397" class="edge">
<title>30&#45;&#45;33</title>
<path fill="none" stroke="#000000" d="M589.1433,-1390.7177C702.7542,-1315.7239 1283.8665,-932.135 1397.3947,-857.1957"/>
</g>
<!-- 30&#45;&#45;34 -->
<g id="edge396" class="edge">
<title>30&#45;&#45;34</title>
<path fill="none" stroke="#000000" d="M587.3951,-1389.4637C698.149,-1301.1403 1299.7485,-821.3808 1410.4201,-733.1231"/>
</g>
<!-- 31&#45;&#45;32 -->
<g id="edge398" class="edge">
<title>31&#45;&#45;32</title>
<path fill="none" stroke="#000000" d="M1389.5061,-595.0609C1213.0381,-602.9861 230.1566,-647.1273 54.0252,-655.0374"/>
</g>
<!-- 31&#45;&#45;33 -->
<g id="edge399" class="edge">
<title>31&#45;&#45;33</title>
<path fill="none" stroke="#000000" d="M1416.6417,-611.8683C1416.6417,-658.0026 1416.6417,-779.9676 1416.6417,-826.2914"/>
</g>
<!-- 33&#45;&#45;34 -->
<g id="edge400" class="edge">
<title>33&#45;&#45;34</title>
<path fill="none" stroke="#000000" d="M1418.2818,-826.2676C1420.4203,-802.507 1424.1395,-761.1832 1426.279,-737.4118"/>
</g>
</g>
</svg>
